^C:\USERS\ANGEL\DESKTOP\LABCGEIHM\PRACTICA8\PRACTICA8\MAIN_PRAC8.CPP
C:\USERS\ANGEL\DESKTOP\LABCGEIHM\PRACTICA8\PRACTICA8\DEBUG\VC142.PDB
C:\USERS\ANGEL\DESKTOP\LABCGEIHM\PRACTICA8\PRACTICA8\DEBUG\VC142.IDB
C:\USERS\ANGEL\DESKTOP\LABCGEIHM\PRACTICA8\PRACTICA8\DEBUG\MAIN_PRAC8.OBJ
^C:\USERS\ANGEL\DESKTOP\LABCGEIHM\PRACTICA8\PRACTICA8\PRACTICA.CPP|C:\USERS\ANGEL\DESKTOP\LABCGEIHM\PRACTICA8\PRACTICA8\REPORTE.CPP
C:\USERS\ANGEL\DESKTOP\LABCGEIHM\PRACTICA8\PRACTICA8\DEBUG\VC142.PDB
C:\USERS\ANGEL\DESKTOP\LABCGEIHM\PRACTICA8\PRACTICA8\DEBUG\VC142.IDB
C:\USERS\ANGEL\DESKTOP\LABCGEIHM\PRACTICA8\PRACTICA8\DEBUG\REPORTE.OBJ
C:\USERS\ANGEL\DESKTOP\LABCGEIHM\PRACTICA8\PRACTICA8\DEBUG\PRACTICA.OBJ
^C:\USERS\ANGEL\DESKTOP\LABCGEIHM\PRACTICA8\PRACTICA8\PRACTICA.CPP
C:\USERS\ANGEL\DESKTOP\LABCGEIHM\PRACTICA8\PRACTICA8\DEBUG\VC142.PDB
^C:\USERS\ANGEL\DESKTOP\LABCGEIHM\PRACTICA8\PRACTICA8\REPORTE.CPP
C:\USERS\ANGEL\DESKTOP\LABCGEIHM\PRACTICA8\PRACTICA8\DEBUG\VC142.PDB
C:\USERS\ANGEL\DESKTOP\LABCGEIHM\PRACTICA8\PRACTICA8\DEBUG\VC142.IDB
C:\USERS\ANGEL\DESKTOP\LABCGEIHM\PRACTICA8\PRACTICA8\DEBUG\REPORTE.OBJ
^C:\USERS\ANGEL\DESKTOP\LABCGEIHM\PRACTICA11\PRACTICA8\MAIN_PRAC11.CPP
C:\USERS\ANGEL\DESKTOP\LABCGEIHM\PRACTICA11\PRACTICA8\DEBUG\VC142.PDB
C:\USERS\ANGEL\DESKTOP\LABCGEIHM\PRACTICA11\PRACTICA8\DEBUG\VC142.IDB
C:\USERS\ANGEL\DESKTOP\LABCGEIHM\PRACTICA11\PRACTICA8\DEBUG\MAIN_PRAC11.OBJ
