^C:\USERS\ANGEL\DESKTOP\LABCGEIHM\PRACTICA8\PRACTICA8\DEBUG\PRACTICA.OBJ
/OUT:"C:\USERS\ANGEL\DESKTOP\LABCGEIHM\PRACTICA8\DEBUG\PRACTICA8.EXE" /INCREMENTAL /NOLOGO /LIBPATH:"C:\USERS\ANGEL\DESKTOP\LABCGEIHM\PRACTICA8\/EXTERNAL LIBRARIES/GLEW/LIB/RELEASE/WIN32" /LIBPATH:"C:\USERS\ANGEL\DESKTOP\LABCGEIHM\PRACTICA8\/EXTERNAL LIBRARIES/GLFW/LIB-VC2015" /LIBPATH:"C:\USERS\ANGEL\DESKTOP\LABCGEIHM\PRACTICA8\/EXTERNAL LIBRARIES/SOIL2/LIB" /LIBPATH:"C:\USERS\ANGEL\DESKTOP\LABCGEIHM\PRACTICA8\/EXTERNAL LIBRARIES/ASSIMP/LIB" "ASSIMP-VC140-MT.LIB" OPENGL32.LIB GLEW32.LIB GLFW3.LIB "SOIL2-DEBUG.LIB" KERNEL32.LIB USER32.LIB GDI32.LIB WINSPOOL.LIB COMDLG32.LIB ADVAPI32.LIB SHELL32.LIB OLE32.LIB OLEAUT32.LIB UUID.LIB ODBC32.LIB ODBCCP32.LIB KERNEL32.LIB USER32.LIB GDI32.LIB WINSPOOL.LIB COMDLG32.LIB ADVAPI32.LIB SHELL32.LIB OLE32.LIB OLEAUT32.LIB UUID.LIB ODBC32.LIB ODBCCP32.LIB /MANIFEST /MANIFESTUAC:"level='asInvoker' uiAccess='false'" /manifest:embed /DEBUG:FASTLINK /PDB:"C:\USERS\ANGEL\DESKTOP\LABCGEIHM\PRACTICA8\DEBUG\PRACTICA8.PDB" /SUBSYSTEM:CONSOLE /TLBID:1 /DYNAMICBASE /NXCOMPAT /IMPLIB:"C:\USERS\ANGEL\DESKTOP\LABCGEIHM\PRACTICA8\DEBUG\PRACTICA8.LIB" /MACHINE:X86 DEBUG\PRACTICA.OBJ
^C:\USERS\ANGEL\DESKTOP\LABCGEIHM\PRACTICA8\PRACTICA8\DEBUG\REPORTE.OBJ
/OUT:"C:\USERS\ANGEL\DESKTOP\LABCGEIHM\PRACTICA8\DEBUG\PRACTICA8.EXE" /INCREMENTAL /NOLOGO /LIBPATH:"C:\USERS\ANGEL\DESKTOP\LABCGEIHM\PRACTICA8\/EXTERNAL LIBRARIES/GLEW/LIB/RELEASE/WIN32" /LIBPATH:"C:\USERS\ANGEL\DESKTOP\LABCGEIHM\PRACTICA8\/EXTERNAL LIBRARIES/GLFW/LIB-VC2015" /LIBPATH:"C:\USERS\ANGEL\DESKTOP\LABCGEIHM\PRACTICA8\/EXTERNAL LIBRARIES/SOIL2/LIB" /LIBPATH:"C:\USERS\ANGEL\DESKTOP\LABCGEIHM\PRACTICA8\/EXTERNAL LIBRARIES/ASSIMP/LIB" "ASSIMP-VC140-MT.LIB" OPENGL32.LIB GLEW32.LIB GLFW3.LIB "SOIL2-DEBUG.LIB" KERNEL32.LIB USER32.LIB GDI32.LIB WINSPOOL.LIB COMDLG32.LIB ADVAPI32.LIB SHELL32.LIB OLE32.LIB OLEAUT32.LIB UUID.LIB ODBC32.LIB ODBCCP32.LIB KERNEL32.LIB USER32.LIB GDI32.LIB WINSPOOL.LIB COMDLG32.LIB ADVAPI32.LIB SHELL32.LIB OLE32.LIB OLEAUT32.LIB UUID.LIB ODBC32.LIB ODBCCP32.LIB /MANIFEST /MANIFESTUAC:"level='asInvoker' uiAccess='false'" /manifest:embed /DEBUG:FASTLINK /PDB:"C:\USERS\ANGEL\DESKTOP\LABCGEIHM\PRACTICA8\DEBUG\PRACTICA8.PDB" /SUBSYSTEM:CONSOLE /TLBID:1 /DYNAMICBASE /NXCOMPAT /IMPLIB:"C:\USERS\ANGEL\DESKTOP\LABCGEIHM\PRACTICA8\DEBUG\PRACTICA8.LIB" /MACHINE:X86 DEBUG\REPORTE.OBJ
^C:\USERS\ANGEL\DESKTOP\LABCGEIHM\PRACTICA11\PRACTICA8\DEBUG\MAIN_PRAC11.OBJ
/OUT:"C:\USERS\ANGEL\DESKTOP\LABCGEIHM\PRACTICA11\DEBUG\PRACTICA8.EXE" /INCREMENTAL /NOLOGO /LIBPATH:"C:\USERS\ANGEL\DESKTOP\LABCGEIHM\PRACTICA11\/EXTERNAL LIBRARIES/GLEW/LIB/RELEASE/WIN32" /LIBPATH:"C:\USERS\ANGEL\DESKTOP\LABCGEIHM\PRACTICA11\/EXTERNAL LIBRARIES/GLFW/LIB-VC2015" /LIBPATH:"C:\USERS\ANGEL\DESKTOP\LABCGEIHM\PRACTICA11\/EXTERNAL LIBRARIES/SOIL2/LIB" /LIBPATH:"C:\USERS\ANGEL\DESKTOP\LABCGEIHM\PRACTICA11\/EXTERNAL LIBRARIES/ASSIMP/LIB" "ASSIMP-VC140-MT.LIB" OPENGL32.LIB GLEW32.LIB GLFW3.LIB "SOIL2-DEBUG.LIB" KERNEL32.LIB USER32.LIB GDI32.LIB WINSPOOL.LIB COMDLG32.LIB ADVAPI32.LIB SHELL32.LIB OLE32.LIB OLEAUT32.LIB UUID.LIB ODBC32.LIB ODBCCP32.LIB KERNEL32.LIB USER32.LIB GDI32.LIB WINSPOOL.LIB COMDLG32.LIB ADVAPI32.LIB SHELL32.LIB OLE32.LIB OLEAUT32.LIB UUID.LIB ODBC32.LIB ODBCCP32.LIB /MANIFEST /MANIFESTUAC:"level='asInvoker' uiAccess='false'" /manifest:embed /DEBUG:FASTLINK /PDB:"C:\USERS\ANGEL\DESKTOP\LABCGEIHM\PRACTICA11\DEBUG\PRACTICA8.PDB" /SUBSYSTEM:CONSOLE /TLBID:1 /DYNAMICBASE /NXCOMPAT /IMPLIB:"C:\USERS\ANGEL\DESKTOP\LABCGEIHM\PRACTICA11\DEBUG\PRACTICA8.LIB" /MACHINE:X86 DEBUG\MAIN_PRAC11.OBJ
