^C:\USERS\ANGEL\DESKTOP\LABCGEIHM\PRACTICA8\PRACTICA8\MAIN_PRAC8.CPP
/c /I"C:\USERS\ANGEL\DESKTOP\LABCGEIHM\PRACTICA8\/EXTERNAL LIBRARIES/GLFW/INCLUDE" /I"C:\USERS\ANGEL\DESKTOP\LABCGEIHM\PRACTICA8\/EXTERNAL LIBRARIES/GLM" /I"C:\USERS\ANGEL\DESKTOP\LABCGEIHM\PRACTICA8\/EXTERNAL LIBRARIES/ASSIMP/INCLUDE" /I"C:\USERS\ANGEL\DESKTOP\LABCGEIHM\PRACTICA8\/EXTERNAL LIBRARIES/GLEW/INCLUDE" /ZI /JMC /nologo /W3 /WX- /diagnostics:column /sdl /Od /Oy- /D WIN32 /D _DEBUG /D _CONSOLE /D _UNICODE /D UNICODE /Gm- /EHsc /RTC1 /MDd /GS /fp:precise /permissive- /Zc:wchar_t /Zc:forScope /Zc:inline /Fo"DEBUG\\" /Fd"DEBUG\VC142.PDB" /Gd /TP /analyze- /FC C:\USERS\ANGEL\DESKTOP\LABCGEIHM\PRACTICA8\PRACTICA8\MAIN_PRAC8.CPP
^C:\USERS\ANGEL\DESKTOP\LABCGEIHM\PRACTICA8\PRACTICA8\PRACTICA.CPP
/c /I"C:\USERS\ANGEL\DESKTOP\LABCGEIHM\PRACTICA8\/EXTERNAL LIBRARIES/GLFW/INCLUDE" /I"C:\USERS\ANGEL\DESKTOP\LABCGEIHM\PRACTICA8\/EXTERNAL LIBRARIES/GLM" /I"C:\USERS\ANGEL\DESKTOP\LABCGEIHM\PRACTICA8\/EXTERNAL LIBRARIES/ASSIMP/INCLUDE" /I"C:\USERS\ANGEL\DESKTOP\LABCGEIHM\PRACTICA8\/EXTERNAL LIBRARIES/GLEW/INCLUDE" /ZI /JMC /nologo /W3 /WX- /diagnostics:column /sdl /Od /Oy- /D WIN32 /D _DEBUG /D _CONSOLE /D _UNICODE /D UNICODE /Gm- /EHsc /RTC1 /MDd /GS /fp:precise /permissive- /Zc:wchar_t /Zc:forScope /Zc:inline /Fo"DEBUG\\" /Fd"DEBUG\VC142.PDB" /Gd /TP /analyze- /FC C:\USERS\ANGEL\DESKTOP\LABCGEIHM\PRACTICA8\PRACTICA8\PRACTICA.CPP
^C:\USERS\ANGEL\DESKTOP\LABCGEIHM\PRACTICA8\PRACTICA8\REPORTE.CPP
/c /I"C:\USERS\ANGEL\DESKTOP\LABCGEIHM\PRACTICA8\/EXTERNAL LIBRARIES/GLFW/INCLUDE" /I"C:\USERS\ANGEL\DESKTOP\LABCGEIHM\PRACTICA8\/EXTERNAL LIBRARIES/GLM" /I"C:\USERS\ANGEL\DESKTOP\LABCGEIHM\PRACTICA8\/EXTERNAL LIBRARIES/ASSIMP/INCLUDE" /I"C:\USERS\ANGEL\DESKTOP\LABCGEIHM\PRACTICA8\/EXTERNAL LIBRARIES/GLEW/INCLUDE" /ZI /JMC /nologo /W3 /WX- /diagnostics:column /sdl /Od /Oy- /D WIN32 /D _DEBUG /D _CONSOLE /D _UNICODE /D UNICODE /Gm- /EHsc /RTC1 /MDd /GS /fp:precise /permissive- /Zc:wchar_t /Zc:forScope /Zc:inline /Fo"DEBUG\\" /Fd"DEBUG\VC142.PDB" /Gd /TP /analyze- /FC C:\USERS\ANGEL\DESKTOP\LABCGEIHM\PRACTICA8\PRACTICA8\REPORTE.CPP
^C:\USERS\ANGEL\DESKTOP\LABCGEIHM\PRACTICA11\PRACTICA8\MAIN_PRAC11.CPP
/c /I"C:\USERS\ANGEL\DESKTOP\LABCGEIHM\PRACTICA11\/EXTERNAL LIBRARIES/GLFW/INCLUDE" /I"C:\USERS\ANGEL\DESKTOP\LABCGEIHM\PRACTICA11\/EXTERNAL LIBRARIES/GLM" /I"C:\USERS\ANGEL\DESKTOP\LABCGEIHM\PRACTICA11\/EXTERNAL LIBRARIES/ASSIMP/INCLUDE" /I"C:\USERS\ANGEL\DESKTOP\LABCGEIHM\PRACTICA11\/EXTERNAL LIBRARIES/GLEW/INCLUDE" /ZI /JMC /nologo /W3 /WX- /diagnostics:column /sdl /Od /Oy- /D WIN32 /D _DEBUG /D _CONSOLE /D _UNICODE /D UNICODE /Gm- /EHsc /RTC1 /MDd /GS /fp:precise /permissive- /Zc:wchar_t /Zc:forScope /Zc:inline /Fo"DEBUG\\" /Fd"DEBUG\VC142.PDB" /Gd /TP /analyze- /FC C:\USERS\ANGEL\DESKTOP\LABCGEIHM\PRACTICA11\PRACTICA8\MAIN_PRAC11.CPP
