^C:\Users\Angel\Desktop\LabCGEIHM\PROYECTOFINAL\fornitehouseopengl\Fortnite\Fortnite.vcxproj
C:\Users\Angel\Desktop\LabCGEIHM\PROYECTOFINAL\fornitehouseopengl\Release\Fortnite.ipdb
C:\Users\Angel\Desktop\LabCGEIHM\PROYECTOFINAL\fornitehouseopengl\Release\Fortnite.iobj
^C:\Users\Angel\Desktop\LabCGEIHM\PROYECTOFINAL\fornitehouseopengl\Fortnite\Fortnite.vcxproj
C:\Users\Angel\Desktop\LabCGEIHM\PROYECTOFINAL\fornitehouseopengl\Release\Fortnite.ipdb
C:\Users\Angel\Desktop\LabCGEIHM\PROYECTOFINAL\fornitehouseopengl\Release\Fortnite.iobj
^C:\Users\Angel\Desktop\LabCGEIHM\PROYECTOFINAL\fornitehouseopengl\Fortnite\Fortnite.vcxproj
C:\Users\Angel\Desktop\LabCGEIHM\PROYECTOFINAL\fornitehouseopengl\Release\Fortnite.ipdb
C:\Users\Angel\Desktop\LabCGEIHM\PROYECTOFINAL\fornitehouseopengl\Release\Fortnite.iobj
^C:\Users\Angel\Desktop\LabCGEIHM\PROYECTOFINAL\fornitehouseopengl\Fortnite\Fortnite.vcxproj
C:\Users\Angel\Desktop\LabCGEIHM\PROYECTOFINAL\fornitehouseopengl\Release\Fortnite.ipdb
C:\Users\Angel\Desktop\LabCGEIHM\PROYECTOFINAL\fornitehouseopengl\Release\Fortnite.iobj
^C:\Users\Angel\Desktop\LabCGEIHM\PROYECTOFINAL\fornitehouseopengl\Fortnite\Fortnite.vcxproj
C:\Users\Angel\Desktop\LabCGEIHM\PROYECTOFINAL\fornitehouseopengl\Release\Fortnite.ipdb
C:\Users\Angel\Desktop\LabCGEIHM\PROYECTOFINAL\fornitehouseopengl\Release\Fortnite.iobj
^C:\Users\Angel\Desktop\LabCGEIHM\PROYECTOFINAL\fornitehouseopengl\Fortnite\Fortnite.vcxproj
C:\Users\Angel\Desktop\LabCGEIHM\PROYECTOFINAL\fornitehouseopengl\Release\Fortnite.ipdb
C:\Users\Angel\Desktop\LabCGEIHM\PROYECTOFINAL\fornitehouseopengl\Release\Fortnite.iobj
^C:\Users\Angel\Desktop\LabCGEIHM\PROYECTOFINAL\fornitehouseopengl\Fortnite\Fortnite.vcxproj
C:\Users\Angel\Desktop\LabCGEIHM\PROYECTOFINAL\fornitehouseopengl\Release\Fortnite.ipdb
C:\Users\Angel\Desktop\LabCGEIHM\PROYECTOFINAL\fornitehouseopengl\Release\Fortnite.iobj
