^C:\USERS\ANGEL\DESKTOP\LABCGEIHM\PROYECTOFINAL\FORTNITEHOUSE-OPENGL\OPENGL\FORTNITE\FORTNITE\MAIN.CPP
/c /I"C:\USERS\ANGEL\DESKTOP\LABCGEIHM\PROYECTOFINAL\FORTNITEHOUSE-OPENGL\OPENGL\FORTNITE\/EXTERNAL LIBRARIES/ASSIMP/INCLUDE" /I"C:\USERS\ANGEL\DESKTOP\LABCGEIHM\PROYECTOFINAL\FORTNITEHOUSE-OPENGL\OPENGL\FORTNITE\/EXTERNAL LIBRARIES/GLM" /I"C:\USERS\ANGEL\DESKTOP\LABCGEIHM\PROYECTOFINAL\FORTNITEHOUSE-OPENGL\OPENGL\FORTNITE\/EXTERNAL LIBRARIES/GLFW/INCLUDE" /I"C:\USERS\ANGEL\DESKTOP\LABCGEIHM\PROYECTOFINAL\FORTNITEHOUSE-OPENGL\OPENGL\FORTNITE\/EXTERNAL LIBRARIES/GLEW/INCLUDE" /ZI /JMC /nologo /W3 /WX- /diagnostics:column /sdl /Od /Oy- /D WIN32 /D _DEBUG /D _CONSOLE /D _UNICODE /D UNICODE /Gm- /EHsc /RTC1 /MDd /GS /fp:precise /permissive- /Zc:wchar_t /Zc:forScope /Zc:inline /Fo"DEBUG\\" /Fd"DEBUG\VC142.PDB" /Gd /TP /analyze- /FC C:\USERS\ANGEL\DESKTOP\LABCGEIHM\PROYECTOFINAL\FORTNITEHOUSE-OPENGL\OPENGL\FORTNITE\FORTNITE\MAIN.CPP
^C:\USERS\ANGEL\DESKTOP\LABCGEIHM\PROYECTOFINAL\FORTNITEHOUSE-OPENGL\OPENGL\FORTNITE\MAIN.CPP
/c /I"C:\USERS\ANGEL\DESKTOP\LABCGEIHM\PROYECTOFINAL\FORTNITEHOUSE-OPENGL\OPENGL\/EXTERNAL LIBRARIES/ASSIMP/INCLUDE" /I"C:\USERS\ANGEL\DESKTOP\LABCGEIHM\PROYECTOFINAL\FORTNITEHOUSE-OPENGL\OPENGL\/EXTERNAL LIBRARIES/GLM" /I"C:\USERS\ANGEL\DESKTOP\LABCGEIHM\PROYECTOFINAL\FORTNITEHOUSE-OPENGL\OPENGL\/EXTERNAL LIBRARIES/GLFW/INCLUDE" /I"C:\USERS\ANGEL\DESKTOP\LABCGEIHM\PROYECTOFINAL\FORTNITEHOUSE-OPENGL\OPENGL\/EXTERNAL LIBRARIES/GLEW/INCLUDE" /ZI /JMC /nologo /W3 /WX- /diagnostics:column /sdl /Od /Oy- /D WIN32 /D _DEBUG /D _CONSOLE /D _UNICODE /D UNICODE /Gm- /EHsc /RTC1 /MDd /GS /fp:precise /permissive- /Zc:wchar_t /Zc:forScope /Zc:inline /Fo"DEBUG\\" /Fd"DEBUG\VC142.PDB" /Gd /TP /analyze- /FC C:\USERS\ANGEL\DESKTOP\LABCGEIHM\PROYECTOFINAL\FORTNITEHOUSE-OPENGL\OPENGL\FORTNITE\MAIN.CPP
^C:\USERS\ANGEL\DESKTOP\LABCGEIHM\PROYECTOFINAL\FORNITEHOUSEOPENGL\FORTNITE\MAIN.CPP
/c /I"C:\USERS\ANGEL\DESKTOP\LABCGEIHM\PROYECTOFINAL\FORNITEHOUSEOPENGL\/EXTERNAL LIBRARIES/ASSIMP/INCLUDE" /I"C:\USERS\ANGEL\DESKTOP\LABCGEIHM\PROYECTOFINAL\FORNITEHOUSEOPENGL\/EXTERNAL LIBRARIES/GLM" /I"C:\USERS\ANGEL\DESKTOP\LABCGEIHM\PROYECTOFINAL\FORNITEHOUSEOPENGL\/EXTERNAL LIBRARIES/GLFW/INCLUDE" /I"C:\USERS\ANGEL\DESKTOP\LABCGEIHM\PROYECTOFINAL\FORNITEHOUSEOPENGL\/EXTERNAL LIBRARIES/GLEW/INCLUDE" /ZI /JMC /nologo /W3 /WX- /diagnostics:column /sdl /Od /Oy- /D WIN32 /D _DEBUG /D _CONSOLE /D _UNICODE /D UNICODE /Gm- /EHsc /RTC1 /MDd /GS /fp:precise /permissive- /Zc:wchar_t /Zc:forScope /Zc:inline /Fo"DEBUG\\" /Fd"DEBUG\VC142.PDB" /Gd /TP /analyze- /FC C:\USERS\ANGEL\DESKTOP\LABCGEIHM\PROYECTOFINAL\FORNITEHOUSEOPENGL\FORTNITE\MAIN.CPP
