^C:\USERS\ANGEL\DESKTOP\LABCGEIHM\PROYECTOFINAL\FORTNITEHOUSE-OPENGL\OPENGL\FORTNITE\MAIN.CPP
C:\WINDOWS\GLOBALIZATION\SORTING\SORTDEFAULT.NLS
C:\PROGRAM FILES (X86)\MICROSOFT VISUAL STUDIO\2019\ENTERPRISE\VC\TOOLS\MSVC\14.28.29333\BIN\HOSTX86\X86\3082\CLUI.DLL
C:\WINDOWS\SYSTEM32\TZRES.DLL
C:\PROGRAM FILES (X86)\MICROSOFT VISUAL STUDIO\2019\ENTERPRISE\VC\TOOLS\MSVC\14.28.29333\INCLUDE\IOSTREAM
C:\PROGRAM FILES (X86)\MICROSOFT VISUAL STUDIO\2019\ENTERPRISE\VC\TOOLS\MSVC\14.28.29333\INCLUDE\YVALS_CORE.H
C:\PROGRAM FILES (X86)\MICROSOFT VISUAL STUDIO\2019\ENTERPRISE\VC\TOOLS\MSVC\14.28.29333\INCLUDE\VCRUNTIME.H
C:\PROGRAM FILES (X86)\MICROSOFT VISUAL STUDIO\2019\ENTERPRISE\VC\TOOLS\MSVC\14.28.29333\INCLUDE\SAL.H
C:\PROGRAM FILES (X86)\MICROSOFT VISUAL STUDIO\2019\ENTERPRISE\VC\TOOLS\MSVC\14.28.29333\INCLUDE\CONCURRENCYSAL.H
C:\PROGRAM FILES (X86)\MICROSOFT VISUAL STUDIO\2019\ENTERPRISE\VC\TOOLS\MSVC\14.28.29333\INCLUDE\VADEFS.H
C:\PROGRAM FILES (X86)\MICROSOFT VISUAL STUDIO\2019\ENTERPRISE\VC\TOOLS\MSVC\14.28.29333\INCLUDE\XKEYCHECK.H
C:\PROGRAM FILES (X86)\MICROSOFT VISUAL STUDIO\2019\ENTERPRISE\VC\TOOLS\MSVC\14.28.29333\INCLUDE\ISTREAM
C:\PROGRAM FILES (X86)\MICROSOFT VISUAL STUDIO\2019\ENTERPRISE\VC\TOOLS\MSVC\14.28.29333\INCLUDE\OSTREAM
C:\PROGRAM FILES (X86)\MICROSOFT VISUAL STUDIO\2019\ENTERPRISE\VC\TOOLS\MSVC\14.28.29333\INCLUDE\IOS
C:\PROGRAM FILES (X86)\MICROSOFT VISUAL STUDIO\2019\ENTERPRISE\VC\TOOLS\MSVC\14.28.29333\INCLUDE\XLOCNUM
C:\PROGRAM FILES (X86)\MICROSOFT VISUAL STUDIO\2019\ENTERPRISE\VC\TOOLS\MSVC\14.28.29333\INCLUDE\CLIMITS
C:\PROGRAM FILES (X86)\MICROSOFT VISUAL STUDIO\2019\ENTERPRISE\VC\TOOLS\MSVC\14.28.29333\INCLUDE\LIMITS.H
C:\PROGRAM FILES (X86)\MICROSOFT VISUAL STUDIO\2019\ENTERPRISE\VC\TOOLS\MSVC\14.28.29333\INCLUDE\CMATH
C:\PROGRAM FILES (X86)\MICROSOFT VISUAL STUDIO\2019\ENTERPRISE\VC\TOOLS\MSVC\14.28.29333\INCLUDE\YVALS.H
C:\PROGRAM FILES (X86)\WINDOWS KITS\10\INCLUDE\10.0.18362.0\UCRT\CRTDBG.H
C:\PROGRAM FILES (X86)\WINDOWS KITS\10\INCLUDE\10.0.18362.0\UCRT\CORECRT.H
C:\PROGRAM FILES (X86)\MICROSOFT VISUAL STUDIO\2019\ENTERPRISE\VC\TOOLS\MSVC\14.28.29333\INCLUDE\VCRUNTIME_NEW_DEBUG.H
C:\PROGRAM FILES (X86)\MICROSOFT VISUAL STUDIO\2019\ENTERPRISE\VC\TOOLS\MSVC\14.28.29333\INCLUDE\VCRUNTIME_NEW.H
C:\PROGRAM FILES (X86)\MICROSOFT VISUAL STUDIO\2019\ENTERPRISE\VC\TOOLS\MSVC\14.28.29333\INCLUDE\CRTDEFS.H
C:\PROGRAM FILES (X86)\MICROSOFT VISUAL STUDIO\2019\ENTERPRISE\VC\TOOLS\MSVC\14.28.29333\INCLUDE\USE_ANSI.H
C:\PROGRAM FILES (X86)\MICROSOFT VISUAL STUDIO\2019\ENTERPRISE\VC\TOOLS\MSVC\14.28.29333\INCLUDE\CSTDLIB
C:\PROGRAM FILES (X86)\WINDOWS KITS\10\INCLUDE\10.0.18362.0\UCRT\MATH.H
C:\PROGRAM FILES (X86)\WINDOWS KITS\10\INCLUDE\10.0.18362.0\UCRT\CORECRT_MATH.H
C:\PROGRAM FILES (X86)\WINDOWS KITS\10\INCLUDE\10.0.18362.0\UCRT\STDLIB.H
C:\PROGRAM FILES (X86)\WINDOWS KITS\10\INCLUDE\10.0.18362.0\UCRT\CORECRT_MALLOC.H
C:\PROGRAM FILES (X86)\WINDOWS KITS\10\INCLUDE\10.0.18362.0\UCRT\CORECRT_SEARCH.H
C:\PROGRAM FILES (X86)\WINDOWS KITS\10\INCLUDE\10.0.18362.0\UCRT\STDDEF.H
C:\PROGRAM FILES (X86)\WINDOWS KITS\10\INCLUDE\10.0.18362.0\UCRT\CORECRT_WSTDLIB.H
C:\PROGRAM FILES (X86)\MICROSOFT VISUAL STUDIO\2019\ENTERPRISE\VC\TOOLS\MSVC\14.28.29333\INCLUDE\XTR1COMMON
C:\PROGRAM FILES (X86)\MICROSOFT VISUAL STUDIO\2019\ENTERPRISE\VC\TOOLS\MSVC\14.28.29333\INCLUDE\CSTDIO
C:\PROGRAM FILES (X86)\WINDOWS KITS\10\INCLUDE\10.0.18362.0\UCRT\STDIO.H
C:\PROGRAM FILES (X86)\WINDOWS KITS\10\INCLUDE\10.0.18362.0\UCRT\CORECRT_WSTDIO.H
C:\PROGRAM FILES (X86)\WINDOWS KITS\10\INCLUDE\10.0.18362.0\UCRT\CORECRT_STDIO_CONFIG.H
C:\PROGRAM FILES (X86)\MICROSOFT VISUAL STUDIO\2019\ENTERPRISE\VC\TOOLS\MSVC\14.28.29333\INCLUDE\ITERATOR
C:\PROGRAM FILES (X86)\MICROSOFT VISUAL STUDIO\2019\ENTERPRISE\VC\TOOLS\MSVC\14.28.29333\INCLUDE\IOSFWD
C:\PROGRAM FILES (X86)\MICROSOFT VISUAL STUDIO\2019\ENTERPRISE\VC\TOOLS\MSVC\14.28.29333\INCLUDE\CSTRING
C:\PROGRAM FILES (X86)\WINDOWS KITS\10\INCLUDE\10.0.18362.0\UCRT\STRING.H
C:\PROGRAM FILES (X86)\WINDOWS KITS\10\INCLUDE\10.0.18362.0\UCRT\CORECRT_MEMORY.H
C:\PROGRAM FILES (X86)\WINDOWS KITS\10\INCLUDE\10.0.18362.0\UCRT\CORECRT_MEMCPY_S.H
C:\PROGRAM FILES (X86)\WINDOWS KITS\10\INCLUDE\10.0.18362.0\UCRT\ERRNO.H
C:\PROGRAM FILES (X86)\MICROSOFT VISUAL STUDIO\2019\ENTERPRISE\VC\TOOLS\MSVC\14.28.29333\INCLUDE\VCRUNTIME_STRING.H
C:\PROGRAM FILES (X86)\WINDOWS KITS\10\INCLUDE\10.0.18362.0\UCRT\CORECRT_WSTRING.H
C:\PROGRAM FILES (X86)\MICROSOFT VISUAL STUDIO\2019\ENTERPRISE\VC\TOOLS\MSVC\14.28.29333\INCLUDE\CWCHAR
C:\PROGRAM FILES (X86)\WINDOWS KITS\10\INCLUDE\10.0.18362.0\UCRT\WCHAR.H
C:\PROGRAM FILES (X86)\WINDOWS KITS\10\INCLUDE\10.0.18362.0\UCRT\CORECRT_WCONIO.H
C:\PROGRAM FILES (X86)\WINDOWS KITS\10\INCLUDE\10.0.18362.0\UCRT\CORECRT_WCTYPE.H
C:\PROGRAM FILES (X86)\WINDOWS KITS\10\INCLUDE\10.0.18362.0\UCRT\CORECRT_WDIRECT.H
C:\PROGRAM FILES (X86)\WINDOWS KITS\10\INCLUDE\10.0.18362.0\UCRT\CORECRT_WIO.H
C:\PROGRAM FILES (X86)\WINDOWS KITS\10\INCLUDE\10.0.18362.0\UCRT\CORECRT_SHARE.H
C:\PROGRAM FILES (X86)\WINDOWS KITS\10\INCLUDE\10.0.18362.0\UCRT\CORECRT_WPROCESS.H
C:\PROGRAM FILES (X86)\WINDOWS KITS\10\INCLUDE\10.0.18362.0\UCRT\CORECRT_WTIME.H
C:\PROGRAM FILES (X86)\WINDOWS KITS\10\INCLUDE\10.0.18362.0\UCRT\SYS\STAT.H
C:\PROGRAM FILES (X86)\WINDOWS KITS\10\INCLUDE\10.0.18362.0\UCRT\SYS\TYPES.H
C:\PROGRAM FILES (X86)\MICROSOFT VISUAL STUDIO\2019\ENTERPRISE\VC\TOOLS\MSVC\14.28.29333\INCLUDE\XSTDDEF
C:\PROGRAM FILES (X86)\MICROSOFT VISUAL STUDIO\2019\ENTERPRISE\VC\TOOLS\MSVC\14.28.29333\INCLUDE\CSTDDEF
C:\PROGRAM FILES (X86)\MICROSOFT VISUAL STUDIO\2019\ENTERPRISE\VC\TOOLS\MSVC\14.28.29333\INCLUDE\INITIALIZER_LIST
C:\PROGRAM FILES (X86)\MICROSOFT VISUAL STUDIO\2019\ENTERPRISE\VC\TOOLS\MSVC\14.28.29333\INCLUDE\XUTILITY
C:\PROGRAM FILES (X86)\MICROSOFT VISUAL STUDIO\2019\ENTERPRISE\VC\TOOLS\MSVC\14.28.29333\INCLUDE\UTILITY
C:\PROGRAM FILES (X86)\MICROSOFT VISUAL STUDIO\2019\ENTERPRISE\VC\TOOLS\MSVC\14.28.29333\INCLUDE\TYPE_TRAITS
C:\PROGRAM FILES (X86)\MICROSOFT VISUAL STUDIO\2019\ENTERPRISE\VC\TOOLS\MSVC\14.28.29333\INCLUDE\STREAMBUF
C:\PROGRAM FILES (X86)\MICROSOFT VISUAL STUDIO\2019\ENTERPRISE\VC\TOOLS\MSVC\14.28.29333\INCLUDE\XIOSBASE
C:\PROGRAM FILES (X86)\WINDOWS KITS\10\INCLUDE\10.0.18362.0\UCRT\SHARE.H
C:\PROGRAM FILES (X86)\MICROSOFT VISUAL STUDIO\2019\ENTERPRISE\VC\TOOLS\MSVC\14.28.29333\INCLUDE\SYSTEM_ERROR
C:\PROGRAM FILES (X86)\MICROSOFT VISUAL STUDIO\2019\ENTERPRISE\VC\TOOLS\MSVC\14.28.29333\INCLUDE\__MSVC_SYSTEM_ERROR_ABI.HPP
C:\PROGRAM FILES (X86)\MICROSOFT VISUAL STUDIO\2019\ENTERPRISE\VC\TOOLS\MSVC\14.28.29333\INCLUDE\CERRNO
C:\PROGRAM FILES (X86)\MICROSOFT VISUAL STUDIO\2019\ENTERPRISE\VC\TOOLS\MSVC\14.28.29333\INCLUDE\STDEXCEPT
C:\PROGRAM FILES (X86)\MICROSOFT VISUAL STUDIO\2019\ENTERPRISE\VC\TOOLS\MSVC\14.28.29333\INCLUDE\EXCEPTION
C:\PROGRAM FILES (X86)\WINDOWS KITS\10\INCLUDE\10.0.18362.0\UCRT\MALLOC.H
C:\PROGRAM FILES (X86)\MICROSOFT VISUAL STUDIO\2019\ENTERPRISE\VC\TOOLS\MSVC\14.28.29333\INCLUDE\VCRUNTIME_EXCEPTION.H
C:\PROGRAM FILES (X86)\MICROSOFT VISUAL STUDIO\2019\ENTERPRISE\VC\TOOLS\MSVC\14.28.29333\INCLUDE\EH.H
C:\PROGRAM FILES (X86)\WINDOWS KITS\10\INCLUDE\10.0.18362.0\UCRT\CORECRT_TERMINATE.H
C:\PROGRAM FILES (X86)\MICROSOFT VISUAL STUDIO\2019\ENTERPRISE\VC\TOOLS\MSVC\14.28.29333\INCLUDE\XSTRING
C:\PROGRAM FILES (X86)\MICROSOFT VISUAL STUDIO\2019\ENTERPRISE\VC\TOOLS\MSVC\14.28.29333\INCLUDE\XMEMORY
C:\PROGRAM FILES (X86)\MICROSOFT VISUAL STUDIO\2019\ENTERPRISE\VC\TOOLS\MSVC\14.28.29333\INCLUDE\CSTDINT
C:\PROGRAM FILES (X86)\MICROSOFT VISUAL STUDIO\2019\ENTERPRISE\VC\TOOLS\MSVC\14.28.29333\INCLUDE\STDINT.H
C:\PROGRAM FILES (X86)\MICROSOFT VISUAL STUDIO\2019\ENTERPRISE\VC\TOOLS\MSVC\14.28.29333\INCLUDE\LIMITS
C:\PROGRAM FILES (X86)\MICROSOFT VISUAL STUDIO\2019\ENTERPRISE\VC\TOOLS\MSVC\14.28.29333\INCLUDE\CFLOAT
C:\PROGRAM FILES (X86)\WINDOWS KITS\10\INCLUDE\10.0.18362.0\UCRT\FLOAT.H
C:\PROGRAM FILES (X86)\MICROSOFT VISUAL STUDIO\2019\ENTERPRISE\VC\TOOLS\MSVC\14.28.29333\INCLUDE\INTRIN0.H
C:\PROGRAM FILES (X86)\MICROSOFT VISUAL STUDIO\2019\ENTERPRISE\VC\TOOLS\MSVC\14.28.29333\INCLUDE\ISA_AVAILABILITY.H
C:\PROGRAM FILES (X86)\MICROSOFT VISUAL STUDIO\2019\ENTERPRISE\VC\TOOLS\MSVC\14.28.29333\INCLUDE\NEW
C:\PROGRAM FILES (X86)\MICROSOFT VISUAL STUDIO\2019\ENTERPRISE\VC\TOOLS\MSVC\14.28.29333\INCLUDE\XATOMIC.H
C:\PROGRAM FILES (X86)\MICROSOFT VISUAL STUDIO\2019\ENTERPRISE\VC\TOOLS\MSVC\14.28.29333\INCLUDE\XCALL_ONCE.H
C:\PROGRAM FILES (X86)\MICROSOFT VISUAL STUDIO\2019\ENTERPRISE\VC\TOOLS\MSVC\14.28.29333\INCLUDE\XERRC.H
C:\PROGRAM FILES (X86)\MICROSOFT VISUAL STUDIO\2019\ENTERPRISE\VC\TOOLS\MSVC\14.28.29333\INCLUDE\ATOMIC
C:\PROGRAM FILES (X86)\MICROSOFT VISUAL STUDIO\2019\ENTERPRISE\VC\TOOLS\MSVC\14.28.29333\INCLUDE\XTHREADS.H
C:\PROGRAM FILES (X86)\MICROSOFT VISUAL STUDIO\2019\ENTERPRISE\VC\TOOLS\MSVC\14.28.29333\INCLUDE\XTIMEC.H
C:\PROGRAM FILES (X86)\WINDOWS KITS\10\INCLUDE\10.0.18362.0\UCRT\TIME.H
C:\PROGRAM FILES (X86)\MICROSOFT VISUAL STUDIO\2019\ENTERPRISE\VC\TOOLS\MSVC\14.28.29333\INCLUDE\XLOCALE
C:\PROGRAM FILES (X86)\MICROSOFT VISUAL STUDIO\2019\ENTERPRISE\VC\TOOLS\MSVC\14.28.29333\INCLUDE\MEMORY
C:\PROGRAM FILES (X86)\MICROSOFT VISUAL STUDIO\2019\ENTERPRISE\VC\TOOLS\MSVC\14.28.29333\INCLUDE\TYPEINFO
C:\PROGRAM FILES (X86)\MICROSOFT VISUAL STUDIO\2019\ENTERPRISE\VC\TOOLS\MSVC\14.28.29333\INCLUDE\VCRUNTIME_TYPEINFO.H
C:\PROGRAM FILES (X86)\MICROSOFT VISUAL STUDIO\2019\ENTERPRISE\VC\TOOLS\MSVC\14.28.29333\INCLUDE\XFACET
C:\PROGRAM FILES (X86)\MICROSOFT VISUAL STUDIO\2019\ENTERPRISE\VC\TOOLS\MSVC\14.28.29333\INCLUDE\XLOCINFO
C:\PROGRAM FILES (X86)\MICROSOFT VISUAL STUDIO\2019\ENTERPRISE\VC\TOOLS\MSVC\14.28.29333\INCLUDE\XLOCINFO.H
C:\PROGRAM FILES (X86)\WINDOWS KITS\10\INCLUDE\10.0.18362.0\UCRT\CTYPE.H
C:\PROGRAM FILES (X86)\WINDOWS KITS\10\INCLUDE\10.0.18362.0\UCRT\LOCALE.H
C:\USERS\ANGEL\DESKTOP\LABCGEIHM\PROYECTOFINAL\FORTNITEHOUSE-OPENGL\OPENGL\EXTERNAL LIBRARIES\GLEW\INCLUDE\GL\GLEW.H
C:\PROGRAM FILES (X86)\WINDOWS KITS\10\INCLUDE\10.0.18362.0\UM\GL\GLU.H
C:\PROGRAM FILES (X86)\WINDOWS KITS\10\INCLUDE\10.0.18362.0\SHARED\WINAPIFAMILY.H
C:\PROGRAM FILES (X86)\WINDOWS KITS\10\INCLUDE\10.0.18362.0\SHARED\WINPACKAGEFAMILY.H
C:\PROGRAM FILES (X86)\WINDOWS KITS\10\INCLUDE\10.0.18362.0\UM\GL\GL.H
C:\USERS\ANGEL\DESKTOP\LABCGEIHM\PROYECTOFINAL\FORTNITEHOUSE-OPENGL\OPENGL\EXTERNAL LIBRARIES\GLFW\INCLUDE\GLFW\GLFW3.H
C:\USERS\ANGEL\DESKTOP\LABCGEIHM\PROYECTOFINAL\FORTNITEHOUSE-OPENGL\OPENGL\FORTNITE\STB_IMAGE.H
C:\USERS\ANGEL\DESKTOP\LABCGEIHM\PROYECTOFINAL\FORTNITEHOUSE-OPENGL\OPENGL\EXTERNAL LIBRARIES\GLM\GLM\GLM.HPP
C:\USERS\ANGEL\DESKTOP\LABCGEIHM\PROYECTOFINAL\FORTNITEHOUSE-OPENGL\OPENGL\EXTERNAL LIBRARIES\GLM\GLM\DETAIL\_FIXES.HPP
C:\USERS\ANGEL\DESKTOP\LABCGEIHM\PROYECTOFINAL\FORTNITEHOUSE-OPENGL\OPENGL\EXTERNAL LIBRARIES\GLM\GLM\DETAIL\SETUP.HPP
C:\PROGRAM FILES (X86)\MICROSOFT VISUAL STUDIO\2019\ENTERPRISE\VC\TOOLS\MSVC\14.28.29333\INCLUDE\CASSERT
C:\PROGRAM FILES (X86)\WINDOWS KITS\10\INCLUDE\10.0.18362.0\UCRT\ASSERT.H
C:\USERS\ANGEL\DESKTOP\LABCGEIHM\PROYECTOFINAL\FORTNITEHOUSE-OPENGL\OPENGL\EXTERNAL LIBRARIES\GLM\GLM\SIMD\PLATFORM.H
C:\PROGRAM FILES (X86)\MICROSOFT VISUAL STUDIO\2019\ENTERPRISE\VC\TOOLS\MSVC\14.28.29333\INCLUDE\EMMINTRIN.H
C:\PROGRAM FILES (X86)\MICROSOFT VISUAL STUDIO\2019\ENTERPRISE\VC\TOOLS\MSVC\14.28.29333\INCLUDE\XMMINTRIN.H
C:\PROGRAM FILES (X86)\MICROSOFT VISUAL STUDIO\2019\ENTERPRISE\VC\TOOLS\MSVC\14.28.29333\INCLUDE\MMINTRIN.H
C:\USERS\ANGEL\DESKTOP\LABCGEIHM\PROYECTOFINAL\FORTNITEHOUSE-OPENGL\OPENGL\EXTERNAL LIBRARIES\GLM\GLM\FWD.HPP
C:\USERS\ANGEL\DESKTOP\LABCGEIHM\PROYECTOFINAL\FORTNITEHOUSE-OPENGL\OPENGL\EXTERNAL LIBRARIES\GLM\GLM\DETAIL\QUALIFIER.HPP
C:\USERS\ANGEL\DESKTOP\LABCGEIHM\PROYECTOFINAL\FORTNITEHOUSE-OPENGL\OPENGL\EXTERNAL LIBRARIES\GLM\GLM\VEC2.HPP
C:\USERS\ANGEL\DESKTOP\LABCGEIHM\PROYECTOFINAL\FORTNITEHOUSE-OPENGL\OPENGL\EXTERNAL LIBRARIES\GLM\GLM\EXT\VECTOR_BOOL2.HPP
C:\USERS\ANGEL\DESKTOP\LABCGEIHM\PROYECTOFINAL\FORTNITEHOUSE-OPENGL\OPENGL\EXTERNAL LIBRARIES\GLM\GLM\DETAIL\TYPE_VEC2.HPP
C:\USERS\ANGEL\DESKTOP\LABCGEIHM\PROYECTOFINAL\FORTNITEHOUSE-OPENGL\OPENGL\EXTERNAL LIBRARIES\GLM\GLM\DETAIL\TYPE_VEC2.INL
C:\USERS\ANGEL\DESKTOP\LABCGEIHM\PROYECTOFINAL\FORTNITEHOUSE-OPENGL\OPENGL\EXTERNAL LIBRARIES\GLM\GLM\DETAIL\COMPUTE_VECTOR_RELATIONAL.HPP
C:\USERS\ANGEL\DESKTOP\LABCGEIHM\PROYECTOFINAL\FORTNITEHOUSE-OPENGL\OPENGL\EXTERNAL LIBRARIES\GLM\GLM\EXT\VECTOR_BOOL2_PRECISION.HPP
C:\USERS\ANGEL\DESKTOP\LABCGEIHM\PROYECTOFINAL\FORTNITEHOUSE-OPENGL\OPENGL\EXTERNAL LIBRARIES\GLM\GLM\EXT\VECTOR_FLOAT2.HPP
C:\USERS\ANGEL\DESKTOP\LABCGEIHM\PROYECTOFINAL\FORTNITEHOUSE-OPENGL\OPENGL\EXTERNAL LIBRARIES\GLM\GLM\EXT\VECTOR_FLOAT2_PRECISION.HPP
C:\USERS\ANGEL\DESKTOP\LABCGEIHM\PROYECTOFINAL\FORTNITEHOUSE-OPENGL\OPENGL\EXTERNAL LIBRARIES\GLM\GLM\EXT\VECTOR_DOUBLE2.HPP
C:\USERS\ANGEL\DESKTOP\LABCGEIHM\PROYECTOFINAL\FORTNITEHOUSE-OPENGL\OPENGL\EXTERNAL LIBRARIES\GLM\GLM\EXT\VECTOR_DOUBLE2_PRECISION.HPP
C:\USERS\ANGEL\DESKTOP\LABCGEIHM\PROYECTOFINAL\FORTNITEHOUSE-OPENGL\OPENGL\EXTERNAL LIBRARIES\GLM\GLM\EXT\VECTOR_INT2.HPP
C:\USERS\ANGEL\DESKTOP\LABCGEIHM\PROYECTOFINAL\FORTNITEHOUSE-OPENGL\OPENGL\EXTERNAL LIBRARIES\GLM\GLM\EXT\VECTOR_INT2_PRECISION.HPP
C:\USERS\ANGEL\DESKTOP\LABCGEIHM\PROYECTOFINAL\FORTNITEHOUSE-OPENGL\OPENGL\EXTERNAL LIBRARIES\GLM\GLM\EXT\VECTOR_UINT2.HPP
C:\USERS\ANGEL\DESKTOP\LABCGEIHM\PROYECTOFINAL\FORTNITEHOUSE-OPENGL\OPENGL\EXTERNAL LIBRARIES\GLM\GLM\EXT\VECTOR_UINT2_PRECISION.HPP
C:\USERS\ANGEL\DESKTOP\LABCGEIHM\PROYECTOFINAL\FORTNITEHOUSE-OPENGL\OPENGL\EXTERNAL LIBRARIES\GLM\GLM\VEC3.HPP
C:\USERS\ANGEL\DESKTOP\LABCGEIHM\PROYECTOFINAL\FORTNITEHOUSE-OPENGL\OPENGL\EXTERNAL LIBRARIES\GLM\GLM\EXT\VECTOR_BOOL3.HPP
C:\USERS\ANGEL\DESKTOP\LABCGEIHM\PROYECTOFINAL\FORTNITEHOUSE-OPENGL\OPENGL\EXTERNAL LIBRARIES\GLM\GLM\DETAIL\TYPE_VEC3.HPP
C:\USERS\ANGEL\DESKTOP\LABCGEIHM\PROYECTOFINAL\FORTNITEHOUSE-OPENGL\OPENGL\EXTERNAL LIBRARIES\GLM\GLM\DETAIL\TYPE_VEC3.INL
C:\USERS\ANGEL\DESKTOP\LABCGEIHM\PROYECTOFINAL\FORTNITEHOUSE-OPENGL\OPENGL\EXTERNAL LIBRARIES\GLM\GLM\EXT\VECTOR_BOOL3_PRECISION.HPP
C:\USERS\ANGEL\DESKTOP\LABCGEIHM\PROYECTOFINAL\FORTNITEHOUSE-OPENGL\OPENGL\EXTERNAL LIBRARIES\GLM\GLM\EXT\VECTOR_FLOAT3.HPP
C:\USERS\ANGEL\DESKTOP\LABCGEIHM\PROYECTOFINAL\FORTNITEHOUSE-OPENGL\OPENGL\EXTERNAL LIBRARIES\GLM\GLM\EXT\VECTOR_FLOAT3_PRECISION.HPP
C:\USERS\ANGEL\DESKTOP\LABCGEIHM\PROYECTOFINAL\FORTNITEHOUSE-OPENGL\OPENGL\EXTERNAL LIBRARIES\GLM\GLM\EXT\VECTOR_DOUBLE3.HPP
C:\USERS\ANGEL\DESKTOP\LABCGEIHM\PROYECTOFINAL\FORTNITEHOUSE-OPENGL\OPENGL\EXTERNAL LIBRARIES\GLM\GLM\EXT\VECTOR_DOUBLE3_PRECISION.HPP
C:\USERS\ANGEL\DESKTOP\LABCGEIHM\PROYECTOFINAL\FORTNITEHOUSE-OPENGL\OPENGL\EXTERNAL LIBRARIES\GLM\GLM\EXT\VECTOR_INT3.HPP
C:\USERS\ANGEL\DESKTOP\LABCGEIHM\PROYECTOFINAL\FORTNITEHOUSE-OPENGL\OPENGL\EXTERNAL LIBRARIES\GLM\GLM\EXT\VECTOR_INT3_PRECISION.HPP
C:\USERS\ANGEL\DESKTOP\LABCGEIHM\PROYECTOFINAL\FORTNITEHOUSE-OPENGL\OPENGL\EXTERNAL LIBRARIES\GLM\GLM\EXT\VECTOR_UINT3.HPP
C:\USERS\ANGEL\DESKTOP\LABCGEIHM\PROYECTOFINAL\FORTNITEHOUSE-OPENGL\OPENGL\EXTERNAL LIBRARIES\GLM\GLM\EXT\VECTOR_UINT3_PRECISION.HPP
C:\USERS\ANGEL\DESKTOP\LABCGEIHM\PROYECTOFINAL\FORTNITEHOUSE-OPENGL\OPENGL\EXTERNAL LIBRARIES\GLM\GLM\VEC4.HPP
C:\USERS\ANGEL\DESKTOP\LABCGEIHM\PROYECTOFINAL\FORTNITEHOUSE-OPENGL\OPENGL\EXTERNAL LIBRARIES\GLM\GLM\EXT\VECTOR_BOOL4.HPP
C:\USERS\ANGEL\DESKTOP\LABCGEIHM\PROYECTOFINAL\FORTNITEHOUSE-OPENGL\OPENGL\EXTERNAL LIBRARIES\GLM\GLM\DETAIL\TYPE_VEC4.HPP
C:\USERS\ANGEL\DESKTOP\LABCGEIHM\PROYECTOFINAL\FORTNITEHOUSE-OPENGL\OPENGL\EXTERNAL LIBRARIES\GLM\GLM\DETAIL\TYPE_VEC4.INL
C:\USERS\ANGEL\DESKTOP\LABCGEIHM\PROYECTOFINAL\FORTNITEHOUSE-OPENGL\OPENGL\EXTERNAL LIBRARIES\GLM\GLM\DETAIL\TYPE_VEC4_SIMD.INL
C:\USERS\ANGEL\DESKTOP\LABCGEIHM\PROYECTOFINAL\FORTNITEHOUSE-OPENGL\OPENGL\EXTERNAL LIBRARIES\GLM\GLM\EXT\VECTOR_BOOL4_PRECISION.HPP
C:\USERS\ANGEL\DESKTOP\LABCGEIHM\PROYECTOFINAL\FORTNITEHOUSE-OPENGL\OPENGL\EXTERNAL LIBRARIES\GLM\GLM\EXT\VECTOR_FLOAT4.HPP
C:\USERS\ANGEL\DESKTOP\LABCGEIHM\PROYECTOFINAL\FORTNITEHOUSE-OPENGL\OPENGL\EXTERNAL LIBRARIES\GLM\GLM\EXT\VECTOR_FLOAT4_PRECISION.HPP
C:\USERS\ANGEL\DESKTOP\LABCGEIHM\PROYECTOFINAL\FORTNITEHOUSE-OPENGL\OPENGL\EXTERNAL LIBRARIES\GLM\GLM\EXT\VECTOR_DOUBLE4.HPP
C:\USERS\ANGEL\DESKTOP\LABCGEIHM\PROYECTOFINAL\FORTNITEHOUSE-OPENGL\OPENGL\EXTERNAL LIBRARIES\GLM\GLM\EXT\VECTOR_DOUBLE4_PRECISION.HPP
C:\USERS\ANGEL\DESKTOP\LABCGEIHM\PROYECTOFINAL\FORTNITEHOUSE-OPENGL\OPENGL\EXTERNAL LIBRARIES\GLM\GLM\EXT\VECTOR_INT4.HPP
C:\USERS\ANGEL\DESKTOP\LABCGEIHM\PROYECTOFINAL\FORTNITEHOUSE-OPENGL\OPENGL\EXTERNAL LIBRARIES\GLM\GLM\EXT\VECTOR_INT4_PRECISION.HPP
C:\USERS\ANGEL\DESKTOP\LABCGEIHM\PROYECTOFINAL\FORTNITEHOUSE-OPENGL\OPENGL\EXTERNAL LIBRARIES\GLM\GLM\EXT\VECTOR_UINT4.HPP
C:\USERS\ANGEL\DESKTOP\LABCGEIHM\PROYECTOFINAL\FORTNITEHOUSE-OPENGL\OPENGL\EXTERNAL LIBRARIES\GLM\GLM\EXT\VECTOR_UINT4_PRECISION.HPP
C:\USERS\ANGEL\DESKTOP\LABCGEIHM\PROYECTOFINAL\FORTNITEHOUSE-OPENGL\OPENGL\EXTERNAL LIBRARIES\GLM\GLM\MAT2X2.HPP
C:\USERS\ANGEL\DESKTOP\LABCGEIHM\PROYECTOFINAL\FORTNITEHOUSE-OPENGL\OPENGL\EXTERNAL LIBRARIES\GLM\GLM\EXT\MATRIX_DOUBLE2X2.HPP
C:\USERS\ANGEL\DESKTOP\LABCGEIHM\PROYECTOFINAL\FORTNITEHOUSE-OPENGL\OPENGL\EXTERNAL LIBRARIES\GLM\GLM\DETAIL\TYPE_MAT2X2.HPP
C:\USERS\ANGEL\DESKTOP\LABCGEIHM\PROYECTOFINAL\FORTNITEHOUSE-OPENGL\OPENGL\EXTERNAL LIBRARIES\GLM\GLM\DETAIL\TYPE_MAT2X2.INL
C:\USERS\ANGEL\DESKTOP\LABCGEIHM\PROYECTOFINAL\FORTNITEHOUSE-OPENGL\OPENGL\EXTERNAL LIBRARIES\GLM\GLM\MATRIX.HPP
C:\USERS\ANGEL\DESKTOP\LABCGEIHM\PROYECTOFINAL\FORTNITEHOUSE-OPENGL\OPENGL\EXTERNAL LIBRARIES\GLM\GLM\MAT2X3.HPP
C:\USERS\ANGEL\DESKTOP\LABCGEIHM\PROYECTOFINAL\FORTNITEHOUSE-OPENGL\OPENGL\EXTERNAL LIBRARIES\GLM\GLM\EXT\MATRIX_DOUBLE2X3.HPP
C:\USERS\ANGEL\DESKTOP\LABCGEIHM\PROYECTOFINAL\FORTNITEHOUSE-OPENGL\OPENGL\EXTERNAL LIBRARIES\GLM\GLM\DETAIL\TYPE_MAT2X3.HPP
C:\USERS\ANGEL\DESKTOP\LABCGEIHM\PROYECTOFINAL\FORTNITEHOUSE-OPENGL\OPENGL\EXTERNAL LIBRARIES\GLM\GLM\DETAIL\TYPE_MAT2X3.INL
C:\USERS\ANGEL\DESKTOP\LABCGEIHM\PROYECTOFINAL\FORTNITEHOUSE-OPENGL\OPENGL\EXTERNAL LIBRARIES\GLM\GLM\EXT\MATRIX_DOUBLE2X3_PRECISION.HPP
C:\USERS\ANGEL\DESKTOP\LABCGEIHM\PROYECTOFINAL\FORTNITEHOUSE-OPENGL\OPENGL\EXTERNAL LIBRARIES\GLM\GLM\EXT\MATRIX_FLOAT2X3.HPP
C:\USERS\ANGEL\DESKTOP\LABCGEIHM\PROYECTOFINAL\FORTNITEHOUSE-OPENGL\OPENGL\EXTERNAL LIBRARIES\GLM\GLM\EXT\MATRIX_FLOAT2X3_PRECISION.HPP
C:\USERS\ANGEL\DESKTOP\LABCGEIHM\PROYECTOFINAL\FORTNITEHOUSE-OPENGL\OPENGL\EXTERNAL LIBRARIES\GLM\GLM\MAT2X4.HPP
C:\USERS\ANGEL\DESKTOP\LABCGEIHM\PROYECTOFINAL\FORTNITEHOUSE-OPENGL\OPENGL\EXTERNAL LIBRARIES\GLM\GLM\EXT\MATRIX_DOUBLE2X4.HPP
C:\USERS\ANGEL\DESKTOP\LABCGEIHM\PROYECTOFINAL\FORTNITEHOUSE-OPENGL\OPENGL\EXTERNAL LIBRARIES\GLM\GLM\DETAIL\TYPE_MAT2X4.HPP
C:\USERS\ANGEL\DESKTOP\LABCGEIHM\PROYECTOFINAL\FORTNITEHOUSE-OPENGL\OPENGL\EXTERNAL LIBRARIES\GLM\GLM\DETAIL\TYPE_MAT2X4.INL
C:\USERS\ANGEL\DESKTOP\LABCGEIHM\PROYECTOFINAL\FORTNITEHOUSE-OPENGL\OPENGL\EXTERNAL LIBRARIES\GLM\GLM\EXT\MATRIX_DOUBLE2X4_PRECISION.HPP
C:\USERS\ANGEL\DESKTOP\LABCGEIHM\PROYECTOFINAL\FORTNITEHOUSE-OPENGL\OPENGL\EXTERNAL LIBRARIES\GLM\GLM\EXT\MATRIX_FLOAT2X4.HPP
C:\USERS\ANGEL\DESKTOP\LABCGEIHM\PROYECTOFINAL\FORTNITEHOUSE-OPENGL\OPENGL\EXTERNAL LIBRARIES\GLM\GLM\EXT\MATRIX_FLOAT2X4_PRECISION.HPP
C:\USERS\ANGEL\DESKTOP\LABCGEIHM\PROYECTOFINAL\FORTNITEHOUSE-OPENGL\OPENGL\EXTERNAL LIBRARIES\GLM\GLM\MAT3X2.HPP
C:\USERS\ANGEL\DESKTOP\LABCGEIHM\PROYECTOFINAL\FORTNITEHOUSE-OPENGL\OPENGL\EXTERNAL LIBRARIES\GLM\GLM\EXT\MATRIX_DOUBLE3X2.HPP
C:\USERS\ANGEL\DESKTOP\LABCGEIHM\PROYECTOFINAL\FORTNITEHOUSE-OPENGL\OPENGL\EXTERNAL LIBRARIES\GLM\GLM\DETAIL\TYPE_MAT3X2.HPP
C:\USERS\ANGEL\DESKTOP\LABCGEIHM\PROYECTOFINAL\FORTNITEHOUSE-OPENGL\OPENGL\EXTERNAL LIBRARIES\GLM\GLM\DETAIL\TYPE_MAT3X2.INL
C:\USERS\ANGEL\DESKTOP\LABCGEIHM\PROYECTOFINAL\FORTNITEHOUSE-OPENGL\OPENGL\EXTERNAL LIBRARIES\GLM\GLM\EXT\MATRIX_DOUBLE3X2_PRECISION.HPP
C:\USERS\ANGEL\DESKTOP\LABCGEIHM\PROYECTOFINAL\FORTNITEHOUSE-OPENGL\OPENGL\EXTERNAL LIBRARIES\GLM\GLM\EXT\MATRIX_FLOAT3X2.HPP
C:\USERS\ANGEL\DESKTOP\LABCGEIHM\PROYECTOFINAL\FORTNITEHOUSE-OPENGL\OPENGL\EXTERNAL LIBRARIES\GLM\GLM\EXT\MATRIX_FLOAT3X2_PRECISION.HPP
C:\USERS\ANGEL\DESKTOP\LABCGEIHM\PROYECTOFINAL\FORTNITEHOUSE-OPENGL\OPENGL\EXTERNAL LIBRARIES\GLM\GLM\MAT3X3.HPP
C:\USERS\ANGEL\DESKTOP\LABCGEIHM\PROYECTOFINAL\FORTNITEHOUSE-OPENGL\OPENGL\EXTERNAL LIBRARIES\GLM\GLM\EXT\MATRIX_DOUBLE3X3.HPP
C:\USERS\ANGEL\DESKTOP\LABCGEIHM\PROYECTOFINAL\FORTNITEHOUSE-OPENGL\OPENGL\EXTERNAL LIBRARIES\GLM\GLM\DETAIL\TYPE_MAT3X3.HPP
C:\USERS\ANGEL\DESKTOP\LABCGEIHM\PROYECTOFINAL\FORTNITEHOUSE-OPENGL\OPENGL\EXTERNAL LIBRARIES\GLM\GLM\DETAIL\TYPE_MAT3X3.INL
C:\USERS\ANGEL\DESKTOP\LABCGEIHM\PROYECTOFINAL\FORTNITEHOUSE-OPENGL\OPENGL\EXTERNAL LIBRARIES\GLM\GLM\EXT\MATRIX_DOUBLE3X3_PRECISION.HPP
C:\USERS\ANGEL\DESKTOP\LABCGEIHM\PROYECTOFINAL\FORTNITEHOUSE-OPENGL\OPENGL\EXTERNAL LIBRARIES\GLM\GLM\EXT\MATRIX_FLOAT3X3.HPP
C:\USERS\ANGEL\DESKTOP\LABCGEIHM\PROYECTOFINAL\FORTNITEHOUSE-OPENGL\OPENGL\EXTERNAL LIBRARIES\GLM\GLM\EXT\MATRIX_FLOAT3X3_PRECISION.HPP
C:\USERS\ANGEL\DESKTOP\LABCGEIHM\PROYECTOFINAL\FORTNITEHOUSE-OPENGL\OPENGL\EXTERNAL LIBRARIES\GLM\GLM\MAT3X4.HPP
C:\USERS\ANGEL\DESKTOP\LABCGEIHM\PROYECTOFINAL\FORTNITEHOUSE-OPENGL\OPENGL\EXTERNAL LIBRARIES\GLM\GLM\EXT\MATRIX_DOUBLE3X4.HPP
C:\USERS\ANGEL\DESKTOP\LABCGEIHM\PROYECTOFINAL\FORTNITEHOUSE-OPENGL\OPENGL\EXTERNAL LIBRARIES\GLM\GLM\DETAIL\TYPE_MAT3X4.HPP
C:\USERS\ANGEL\DESKTOP\LABCGEIHM\PROYECTOFINAL\FORTNITEHOUSE-OPENGL\OPENGL\EXTERNAL LIBRARIES\GLM\GLM\DETAIL\TYPE_MAT3X4.INL
C:\USERS\ANGEL\DESKTOP\LABCGEIHM\PROYECTOFINAL\FORTNITEHOUSE-OPENGL\OPENGL\EXTERNAL LIBRARIES\GLM\GLM\EXT\MATRIX_DOUBLE3X4_PRECISION.HPP
C:\USERS\ANGEL\DESKTOP\LABCGEIHM\PROYECTOFINAL\FORTNITEHOUSE-OPENGL\OPENGL\EXTERNAL LIBRARIES\GLM\GLM\EXT\MATRIX_FLOAT3X4.HPP
C:\USERS\ANGEL\DESKTOP\LABCGEIHM\PROYECTOFINAL\FORTNITEHOUSE-OPENGL\OPENGL\EXTERNAL LIBRARIES\GLM\GLM\EXT\MATRIX_FLOAT3X4_PRECISION.HPP
C:\USERS\ANGEL\DESKTOP\LABCGEIHM\PROYECTOFINAL\FORTNITEHOUSE-OPENGL\OPENGL\EXTERNAL LIBRARIES\GLM\GLM\MAT4X2.HPP
C:\USERS\ANGEL\DESKTOP\LABCGEIHM\PROYECTOFINAL\FORTNITEHOUSE-OPENGL\OPENGL\EXTERNAL LIBRARIES\GLM\GLM\EXT\MATRIX_DOUBLE4X2.HPP
C:\USERS\ANGEL\DESKTOP\LABCGEIHM\PROYECTOFINAL\FORTNITEHOUSE-OPENGL\OPENGL\EXTERNAL LIBRARIES\GLM\GLM\DETAIL\TYPE_MAT4X2.HPP
C:\USERS\ANGEL\DESKTOP\LABCGEIHM\PROYECTOFINAL\FORTNITEHOUSE-OPENGL\OPENGL\EXTERNAL LIBRARIES\GLM\GLM\DETAIL\TYPE_MAT4X2.INL
C:\USERS\ANGEL\DESKTOP\LABCGEIHM\PROYECTOFINAL\FORTNITEHOUSE-OPENGL\OPENGL\EXTERNAL LIBRARIES\GLM\GLM\EXT\MATRIX_DOUBLE4X2_PRECISION.HPP
C:\USERS\ANGEL\DESKTOP\LABCGEIHM\PROYECTOFINAL\FORTNITEHOUSE-OPENGL\OPENGL\EXTERNAL LIBRARIES\GLM\GLM\EXT\MATRIX_FLOAT4X2.HPP
C:\USERS\ANGEL\DESKTOP\LABCGEIHM\PROYECTOFINAL\FORTNITEHOUSE-OPENGL\OPENGL\EXTERNAL LIBRARIES\GLM\GLM\EXT\MATRIX_FLOAT4X2_PRECISION.HPP
C:\USERS\ANGEL\DESKTOP\LABCGEIHM\PROYECTOFINAL\FORTNITEHOUSE-OPENGL\OPENGL\EXTERNAL LIBRARIES\GLM\GLM\MAT4X3.HPP
C:\USERS\ANGEL\DESKTOP\LABCGEIHM\PROYECTOFINAL\FORTNITEHOUSE-OPENGL\OPENGL\EXTERNAL LIBRARIES\GLM\GLM\EXT\MATRIX_DOUBLE4X3.HPP
C:\USERS\ANGEL\DESKTOP\LABCGEIHM\PROYECTOFINAL\FORTNITEHOUSE-OPENGL\OPENGL\EXTERNAL LIBRARIES\GLM\GLM\DETAIL\TYPE_MAT4X3.HPP
C:\USERS\ANGEL\DESKTOP\LABCGEIHM\PROYECTOFINAL\FORTNITEHOUSE-OPENGL\OPENGL\EXTERNAL LIBRARIES\GLM\GLM\DETAIL\TYPE_MAT4X3.INL
C:\USERS\ANGEL\DESKTOP\LABCGEIHM\PROYECTOFINAL\FORTNITEHOUSE-OPENGL\OPENGL\EXTERNAL LIBRARIES\GLM\GLM\EXT\MATRIX_DOUBLE4X3_PRECISION.HPP
C:\USERS\ANGEL\DESKTOP\LABCGEIHM\PROYECTOFINAL\FORTNITEHOUSE-OPENGL\OPENGL\EXTERNAL LIBRARIES\GLM\GLM\EXT\MATRIX_FLOAT4X3.HPP
C:\USERS\ANGEL\DESKTOP\LABCGEIHM\PROYECTOFINAL\FORTNITEHOUSE-OPENGL\OPENGL\EXTERNAL LIBRARIES\GLM\GLM\EXT\MATRIX_FLOAT4X3_PRECISION.HPP
C:\USERS\ANGEL\DESKTOP\LABCGEIHM\PROYECTOFINAL\FORTNITEHOUSE-OPENGL\OPENGL\EXTERNAL LIBRARIES\GLM\GLM\MAT4X4.HPP
C:\USERS\ANGEL\DESKTOP\LABCGEIHM\PROYECTOFINAL\FORTNITEHOUSE-OPENGL\OPENGL\EXTERNAL LIBRARIES\GLM\GLM\EXT\MATRIX_DOUBLE4X4.HPP
C:\USERS\ANGEL\DESKTOP\LABCGEIHM\PROYECTOFINAL\FORTNITEHOUSE-OPENGL\OPENGL\EXTERNAL LIBRARIES\GLM\GLM\DETAIL\TYPE_MAT4X4.HPP
C:\USERS\ANGEL\DESKTOP\LABCGEIHM\PROYECTOFINAL\FORTNITEHOUSE-OPENGL\OPENGL\EXTERNAL LIBRARIES\GLM\GLM\DETAIL\TYPE_MAT4X4.INL
C:\USERS\ANGEL\DESKTOP\LABCGEIHM\PROYECTOFINAL\FORTNITEHOUSE-OPENGL\OPENGL\EXTERNAL LIBRARIES\GLM\GLM\DETAIL\TYPE_MAT4X4_SIMD.INL
C:\USERS\ANGEL\DESKTOP\LABCGEIHM\PROYECTOFINAL\FORTNITEHOUSE-OPENGL\OPENGL\EXTERNAL LIBRARIES\GLM\GLM\EXT\MATRIX_DOUBLE4X4_PRECISION.HPP
C:\USERS\ANGEL\DESKTOP\LABCGEIHM\PROYECTOFINAL\FORTNITEHOUSE-OPENGL\OPENGL\EXTERNAL LIBRARIES\GLM\GLM\EXT\MATRIX_FLOAT4X4.HPP
C:\USERS\ANGEL\DESKTOP\LABCGEIHM\PROYECTOFINAL\FORTNITEHOUSE-OPENGL\OPENGL\EXTERNAL LIBRARIES\GLM\GLM\EXT\MATRIX_FLOAT4X4_PRECISION.HPP
C:\USERS\ANGEL\DESKTOP\LABCGEIHM\PROYECTOFINAL\FORTNITEHOUSE-OPENGL\OPENGL\EXTERNAL LIBRARIES\GLM\GLM\DETAIL\FUNC_MATRIX.INL
C:\USERS\ANGEL\DESKTOP\LABCGEIHM\PROYECTOFINAL\FORTNITEHOUSE-OPENGL\OPENGL\EXTERNAL LIBRARIES\GLM\GLM\GEOMETRIC.HPP
C:\USERS\ANGEL\DESKTOP\LABCGEIHM\PROYECTOFINAL\FORTNITEHOUSE-OPENGL\OPENGL\EXTERNAL LIBRARIES\GLM\GLM\DETAIL\FUNC_GEOMETRIC.INL
C:\USERS\ANGEL\DESKTOP\LABCGEIHM\PROYECTOFINAL\FORTNITEHOUSE-OPENGL\OPENGL\EXTERNAL LIBRARIES\GLM\GLM\EXPONENTIAL.HPP
C:\USERS\ANGEL\DESKTOP\LABCGEIHM\PROYECTOFINAL\FORTNITEHOUSE-OPENGL\OPENGL\EXTERNAL LIBRARIES\GLM\GLM\DETAIL\TYPE_VEC1.HPP
C:\USERS\ANGEL\DESKTOP\LABCGEIHM\PROYECTOFINAL\FORTNITEHOUSE-OPENGL\OPENGL\EXTERNAL LIBRARIES\GLM\GLM\DETAIL\TYPE_VEC1.INL
C:\USERS\ANGEL\DESKTOP\LABCGEIHM\PROYECTOFINAL\FORTNITEHOUSE-OPENGL\OPENGL\EXTERNAL LIBRARIES\GLM\GLM\DETAIL\FUNC_EXPONENTIAL.INL
C:\USERS\ANGEL\DESKTOP\LABCGEIHM\PROYECTOFINAL\FORTNITEHOUSE-OPENGL\OPENGL\EXTERNAL LIBRARIES\GLM\GLM\VECTOR_RELATIONAL.HPP
C:\USERS\ANGEL\DESKTOP\LABCGEIHM\PROYECTOFINAL\FORTNITEHOUSE-OPENGL\OPENGL\EXTERNAL LIBRARIES\GLM\GLM\DETAIL\FUNC_VECTOR_RELATIONAL.INL
C:\USERS\ANGEL\DESKTOP\LABCGEIHM\PROYECTOFINAL\FORTNITEHOUSE-OPENGL\OPENGL\EXTERNAL LIBRARIES\GLM\GLM\DETAIL\FUNC_VECTOR_RELATIONAL_SIMD.INL
C:\USERS\ANGEL\DESKTOP\LABCGEIHM\PROYECTOFINAL\FORTNITEHOUSE-OPENGL\OPENGL\EXTERNAL LIBRARIES\GLM\GLM\DETAIL\_VECTORIZE.HPP
C:\USERS\ANGEL\DESKTOP\LABCGEIHM\PROYECTOFINAL\FORTNITEHOUSE-OPENGL\OPENGL\EXTERNAL LIBRARIES\GLM\GLM\DETAIL\FUNC_EXPONENTIAL_SIMD.INL
C:\USERS\ANGEL\DESKTOP\LABCGEIHM\PROYECTOFINAL\FORTNITEHOUSE-OPENGL\OPENGL\EXTERNAL LIBRARIES\GLM\GLM\SIMD\EXPONENTIAL.H
C:\USERS\ANGEL\DESKTOP\LABCGEIHM\PROYECTOFINAL\FORTNITEHOUSE-OPENGL\OPENGL\EXTERNAL LIBRARIES\GLM\GLM\COMMON.HPP
C:\USERS\ANGEL\DESKTOP\LABCGEIHM\PROYECTOFINAL\FORTNITEHOUSE-OPENGL\OPENGL\EXTERNAL LIBRARIES\GLM\GLM\DETAIL\FUNC_COMMON.INL
C:\USERS\ANGEL\DESKTOP\LABCGEIHM\PROYECTOFINAL\FORTNITEHOUSE-OPENGL\OPENGL\EXTERNAL LIBRARIES\GLM\GLM\DETAIL\COMPUTE_COMMON.HPP
C:\USERS\ANGEL\DESKTOP\LABCGEIHM\PROYECTOFINAL\FORTNITEHOUSE-OPENGL\OPENGL\EXTERNAL LIBRARIES\GLM\GLM\DETAIL\FUNC_COMMON_SIMD.INL
C:\USERS\ANGEL\DESKTOP\LABCGEIHM\PROYECTOFINAL\FORTNITEHOUSE-OPENGL\OPENGL\EXTERNAL LIBRARIES\GLM\GLM\SIMD\COMMON.H
C:\PROGRAM FILES (X86)\MICROSOFT VISUAL STUDIO\2019\ENTERPRISE\VC\TOOLS\MSVC\14.28.29333\INCLUDE\IMMINTRIN.H
C:\PROGRAM FILES (X86)\MICROSOFT VISUAL STUDIO\2019\ENTERPRISE\VC\TOOLS\MSVC\14.28.29333\INCLUDE\WMMINTRIN.H
C:\PROGRAM FILES (X86)\MICROSOFT VISUAL STUDIO\2019\ENTERPRISE\VC\TOOLS\MSVC\14.28.29333\INCLUDE\NMMINTRIN.H
C:\PROGRAM FILES (X86)\MICROSOFT VISUAL STUDIO\2019\ENTERPRISE\VC\TOOLS\MSVC\14.28.29333\INCLUDE\SMMINTRIN.H
C:\PROGRAM FILES (X86)\MICROSOFT VISUAL STUDIO\2019\ENTERPRISE\VC\TOOLS\MSVC\14.28.29333\INCLUDE\TMMINTRIN.H
C:\PROGRAM FILES (X86)\MICROSOFT VISUAL STUDIO\2019\ENTERPRISE\VC\TOOLS\MSVC\14.28.29333\INCLUDE\PMMINTRIN.H
C:\PROGRAM FILES (X86)\MICROSOFT VISUAL STUDIO\2019\ENTERPRISE\VC\TOOLS\MSVC\14.28.29333\INCLUDE\ZMMINTRIN.H
C:\USERS\ANGEL\DESKTOP\LABCGEIHM\PROYECTOFINAL\FORTNITEHOUSE-OPENGL\OPENGL\EXTERNAL LIBRARIES\GLM\GLM\DETAIL\FUNC_GEOMETRIC_SIMD.INL
C:\USERS\ANGEL\DESKTOP\LABCGEIHM\PROYECTOFINAL\FORTNITEHOUSE-OPENGL\OPENGL\EXTERNAL LIBRARIES\GLM\GLM\SIMD\GEOMETRIC.H
C:\USERS\ANGEL\DESKTOP\LABCGEIHM\PROYECTOFINAL\FORTNITEHOUSE-OPENGL\OPENGL\EXTERNAL LIBRARIES\GLM\GLM\DETAIL\FUNC_MATRIX_SIMD.INL
C:\USERS\ANGEL\DESKTOP\LABCGEIHM\PROYECTOFINAL\FORTNITEHOUSE-OPENGL\OPENGL\EXTERNAL LIBRARIES\GLM\GLM\SIMD\MATRIX.H
C:\USERS\ANGEL\DESKTOP\LABCGEIHM\PROYECTOFINAL\FORTNITEHOUSE-OPENGL\OPENGL\EXTERNAL LIBRARIES\GLM\GLM\EXT\MATRIX_DOUBLE2X2_PRECISION.HPP
C:\USERS\ANGEL\DESKTOP\LABCGEIHM\PROYECTOFINAL\FORTNITEHOUSE-OPENGL\OPENGL\EXTERNAL LIBRARIES\GLM\GLM\EXT\MATRIX_FLOAT2X2.HPP
C:\USERS\ANGEL\DESKTOP\LABCGEIHM\PROYECTOFINAL\FORTNITEHOUSE-OPENGL\OPENGL\EXTERNAL LIBRARIES\GLM\GLM\EXT\MATRIX_FLOAT2X2_PRECISION.HPP
C:\USERS\ANGEL\DESKTOP\LABCGEIHM\PROYECTOFINAL\FORTNITEHOUSE-OPENGL\OPENGL\EXTERNAL LIBRARIES\GLM\GLM\TRIGONOMETRIC.HPP
C:\USERS\ANGEL\DESKTOP\LABCGEIHM\PROYECTOFINAL\FORTNITEHOUSE-OPENGL\OPENGL\EXTERNAL LIBRARIES\GLM\GLM\DETAIL\FUNC_TRIGONOMETRIC.INL
C:\USERS\ANGEL\DESKTOP\LABCGEIHM\PROYECTOFINAL\FORTNITEHOUSE-OPENGL\OPENGL\EXTERNAL LIBRARIES\GLM\GLM\DETAIL\FUNC_TRIGONOMETRIC_SIMD.INL
C:\USERS\ANGEL\DESKTOP\LABCGEIHM\PROYECTOFINAL\FORTNITEHOUSE-OPENGL\OPENGL\EXTERNAL LIBRARIES\GLM\GLM\PACKING.HPP
C:\USERS\ANGEL\DESKTOP\LABCGEIHM\PROYECTOFINAL\FORTNITEHOUSE-OPENGL\OPENGL\EXTERNAL LIBRARIES\GLM\GLM\DETAIL\FUNC_PACKING.INL
C:\USERS\ANGEL\DESKTOP\LABCGEIHM\PROYECTOFINAL\FORTNITEHOUSE-OPENGL\OPENGL\EXTERNAL LIBRARIES\GLM\GLM\DETAIL\TYPE_HALF.HPP
C:\USERS\ANGEL\DESKTOP\LABCGEIHM\PROYECTOFINAL\FORTNITEHOUSE-OPENGL\OPENGL\EXTERNAL LIBRARIES\GLM\GLM\DETAIL\TYPE_HALF.INL
C:\USERS\ANGEL\DESKTOP\LABCGEIHM\PROYECTOFINAL\FORTNITEHOUSE-OPENGL\OPENGL\EXTERNAL LIBRARIES\GLM\GLM\DETAIL\FUNC_PACKING_SIMD.INL
C:\USERS\ANGEL\DESKTOP\LABCGEIHM\PROYECTOFINAL\FORTNITEHOUSE-OPENGL\OPENGL\EXTERNAL LIBRARIES\GLM\GLM\INTEGER.HPP
C:\USERS\ANGEL\DESKTOP\LABCGEIHM\PROYECTOFINAL\FORTNITEHOUSE-OPENGL\OPENGL\EXTERNAL LIBRARIES\GLM\GLM\DETAIL\FUNC_INTEGER.INL
C:\PROGRAM FILES (X86)\MICROSOFT VISUAL STUDIO\2019\ENTERPRISE\VC\TOOLS\MSVC\14.28.29333\INCLUDE\INTRIN.H
C:\PROGRAM FILES (X86)\MICROSOFT VISUAL STUDIO\2019\ENTERPRISE\VC\TOOLS\MSVC\14.28.29333\INCLUDE\SETJMP.H
C:\PROGRAM FILES (X86)\MICROSOFT VISUAL STUDIO\2019\ENTERPRISE\VC\TOOLS\MSVC\14.28.29333\INCLUDE\AMMINTRIN.H
C:\PROGRAM FILES (X86)\MICROSOFT VISUAL STUDIO\2019\ENTERPRISE\VC\TOOLS\MSVC\14.28.29333\INCLUDE\MM3DNOW.H
C:\USERS\ANGEL\DESKTOP\LABCGEIHM\PROYECTOFINAL\FORTNITEHOUSE-OPENGL\OPENGL\EXTERNAL LIBRARIES\GLM\GLM\DETAIL\FUNC_INTEGER_SIMD.INL
C:\USERS\ANGEL\DESKTOP\LABCGEIHM\PROYECTOFINAL\FORTNITEHOUSE-OPENGL\OPENGL\EXTERNAL LIBRARIES\GLM\GLM\SIMD\INTEGER.H
C:\USERS\ANGEL\DESKTOP\LABCGEIHM\PROYECTOFINAL\FORTNITEHOUSE-OPENGL\OPENGL\EXTERNAL LIBRARIES\GLM\GLM\GTC\MATRIX_TRANSFORM.HPP
C:\USERS\ANGEL\DESKTOP\LABCGEIHM\PROYECTOFINAL\FORTNITEHOUSE-OPENGL\OPENGL\EXTERNAL LIBRARIES\GLM\GLM\EXT\MATRIX_PROJECTION.HPP
C:\USERS\ANGEL\DESKTOP\LABCGEIHM\PROYECTOFINAL\FORTNITEHOUSE-OPENGL\OPENGL\EXTERNAL LIBRARIES\GLM\GLM\GTC\CONSTANTS.HPP
C:\USERS\ANGEL\DESKTOP\LABCGEIHM\PROYECTOFINAL\FORTNITEHOUSE-OPENGL\OPENGL\EXTERNAL LIBRARIES\GLM\GLM\EXT\SCALAR_CONSTANTS.HPP
C:\USERS\ANGEL\DESKTOP\LABCGEIHM\PROYECTOFINAL\FORTNITEHOUSE-OPENGL\OPENGL\EXTERNAL LIBRARIES\GLM\GLM\EXT\SCALAR_CONSTANTS.INL
C:\USERS\ANGEL\DESKTOP\LABCGEIHM\PROYECTOFINAL\FORTNITEHOUSE-OPENGL\OPENGL\EXTERNAL LIBRARIES\GLM\GLM\GTC\CONSTANTS.INL
C:\USERS\ANGEL\DESKTOP\LABCGEIHM\PROYECTOFINAL\FORTNITEHOUSE-OPENGL\OPENGL\EXTERNAL LIBRARIES\GLM\GLM\EXT\MATRIX_PROJECTION.INL
C:\USERS\ANGEL\DESKTOP\LABCGEIHM\PROYECTOFINAL\FORTNITEHOUSE-OPENGL\OPENGL\EXTERNAL LIBRARIES\GLM\GLM\EXT\MATRIX_CLIP_SPACE.HPP
C:\USERS\ANGEL\DESKTOP\LABCGEIHM\PROYECTOFINAL\FORTNITEHOUSE-OPENGL\OPENGL\EXTERNAL LIBRARIES\GLM\GLM\EXT\MATRIX_CLIP_SPACE.INL
C:\USERS\ANGEL\DESKTOP\LABCGEIHM\PROYECTOFINAL\FORTNITEHOUSE-OPENGL\OPENGL\EXTERNAL LIBRARIES\GLM\GLM\EXT\MATRIX_TRANSFORM.HPP
C:\USERS\ANGEL\DESKTOP\LABCGEIHM\PROYECTOFINAL\FORTNITEHOUSE-OPENGL\OPENGL\EXTERNAL LIBRARIES\GLM\GLM\EXT\MATRIX_TRANSFORM.INL
C:\USERS\ANGEL\DESKTOP\LABCGEIHM\PROYECTOFINAL\FORTNITEHOUSE-OPENGL\OPENGL\EXTERNAL LIBRARIES\GLM\GLM\GTC\MATRIX_TRANSFORM.INL
C:\USERS\ANGEL\DESKTOP\LABCGEIHM\PROYECTOFINAL\FORTNITEHOUSE-OPENGL\OPENGL\EXTERNAL LIBRARIES\GLM\GLM\GTC\TYPE_PTR.HPP
C:\USERS\ANGEL\DESKTOP\LABCGEIHM\PROYECTOFINAL\FORTNITEHOUSE-OPENGL\OPENGL\EXTERNAL LIBRARIES\GLM\GLM\GTC\QUATERNION.HPP
C:\USERS\ANGEL\DESKTOP\LABCGEIHM\PROYECTOFINAL\FORTNITEHOUSE-OPENGL\OPENGL\EXTERNAL LIBRARIES\GLM\GLM\EXT\VECTOR_RELATIONAL.HPP
C:\USERS\ANGEL\DESKTOP\LABCGEIHM\PROYECTOFINAL\FORTNITEHOUSE-OPENGL\OPENGL\EXTERNAL LIBRARIES\GLM\GLM\EXT\VECTOR_RELATIONAL.INL
C:\USERS\ANGEL\DESKTOP\LABCGEIHM\PROYECTOFINAL\FORTNITEHOUSE-OPENGL\OPENGL\EXTERNAL LIBRARIES\GLM\GLM\DETAIL\TYPE_FLOAT.HPP
C:\USERS\ANGEL\DESKTOP\LABCGEIHM\PROYECTOFINAL\FORTNITEHOUSE-OPENGL\OPENGL\EXTERNAL LIBRARIES\GLM\GLM\EXT\QUATERNION_COMMON.HPP
C:\USERS\ANGEL\DESKTOP\LABCGEIHM\PROYECTOFINAL\FORTNITEHOUSE-OPENGL\OPENGL\EXTERNAL LIBRARIES\GLM\GLM\EXT\QUATERNION_GEOMETRIC.HPP
C:\USERS\ANGEL\DESKTOP\LABCGEIHM\PROYECTOFINAL\FORTNITEHOUSE-OPENGL\OPENGL\EXTERNAL LIBRARIES\GLM\GLM\EXT\QUATERNION_GEOMETRIC.INL
C:\USERS\ANGEL\DESKTOP\LABCGEIHM\PROYECTOFINAL\FORTNITEHOUSE-OPENGL\OPENGL\EXTERNAL LIBRARIES\GLM\GLM\EXT\QUATERNION_COMMON.INL
C:\USERS\ANGEL\DESKTOP\LABCGEIHM\PROYECTOFINAL\FORTNITEHOUSE-OPENGL\OPENGL\EXTERNAL LIBRARIES\GLM\GLM\EXT\QUATERNION_COMMON_SIMD.INL
C:\USERS\ANGEL\DESKTOP\LABCGEIHM\PROYECTOFINAL\FORTNITEHOUSE-OPENGL\OPENGL\EXTERNAL LIBRARIES\GLM\GLM\EXT\QUATERNION_FLOAT.HPP
C:\USERS\ANGEL\DESKTOP\LABCGEIHM\PROYECTOFINAL\FORTNITEHOUSE-OPENGL\OPENGL\EXTERNAL LIBRARIES\GLM\GLM\DETAIL\TYPE_QUAT.HPP
C:\USERS\ANGEL\DESKTOP\LABCGEIHM\PROYECTOFINAL\FORTNITEHOUSE-OPENGL\OPENGL\EXTERNAL LIBRARIES\GLM\GLM\EXT\QUATERNION_RELATIONAL.HPP
C:\USERS\ANGEL\DESKTOP\LABCGEIHM\PROYECTOFINAL\FORTNITEHOUSE-OPENGL\OPENGL\EXTERNAL LIBRARIES\GLM\GLM\EXT\QUATERNION_RELATIONAL.INL
C:\USERS\ANGEL\DESKTOP\LABCGEIHM\PROYECTOFINAL\FORTNITEHOUSE-OPENGL\OPENGL\EXTERNAL LIBRARIES\GLM\GLM\DETAIL\TYPE_QUAT.INL
C:\USERS\ANGEL\DESKTOP\LABCGEIHM\PROYECTOFINAL\FORTNITEHOUSE-OPENGL\OPENGL\EXTERNAL LIBRARIES\GLM\GLM\DETAIL\TYPE_QUAT_SIMD.INL
C:\USERS\ANGEL\DESKTOP\LABCGEIHM\PROYECTOFINAL\FORTNITEHOUSE-OPENGL\OPENGL\EXTERNAL LIBRARIES\GLM\GLM\EXT\QUATERNION_FLOAT_PRECISION.HPP
C:\USERS\ANGEL\DESKTOP\LABCGEIHM\PROYECTOFINAL\FORTNITEHOUSE-OPENGL\OPENGL\EXTERNAL LIBRARIES\GLM\GLM\EXT\QUATERNION_DOUBLE.HPP
C:\USERS\ANGEL\DESKTOP\LABCGEIHM\PROYECTOFINAL\FORTNITEHOUSE-OPENGL\OPENGL\EXTERNAL LIBRARIES\GLM\GLM\EXT\QUATERNION_DOUBLE_PRECISION.HPP
C:\USERS\ANGEL\DESKTOP\LABCGEIHM\PROYECTOFINAL\FORTNITEHOUSE-OPENGL\OPENGL\EXTERNAL LIBRARIES\GLM\GLM\EXT\QUATERNION_TRIGONOMETRIC.HPP
C:\USERS\ANGEL\DESKTOP\LABCGEIHM\PROYECTOFINAL\FORTNITEHOUSE-OPENGL\OPENGL\EXTERNAL LIBRARIES\GLM\GLM\EXT\QUATERNION_TRIGONOMETRIC.INL
C:\USERS\ANGEL\DESKTOP\LABCGEIHM\PROYECTOFINAL\FORTNITEHOUSE-OPENGL\OPENGL\EXTERNAL LIBRARIES\GLM\GLM\EXT\QUATERNION_TRANSFORM.HPP
C:\USERS\ANGEL\DESKTOP\LABCGEIHM\PROYECTOFINAL\FORTNITEHOUSE-OPENGL\OPENGL\EXTERNAL LIBRARIES\GLM\GLM\EXT\QUATERNION_TRANSFORM.INL
C:\USERS\ANGEL\DESKTOP\LABCGEIHM\PROYECTOFINAL\FORTNITEHOUSE-OPENGL\OPENGL\EXTERNAL LIBRARIES\GLM\GLM\GTC\QUATERNION.INL
C:\USERS\ANGEL\DESKTOP\LABCGEIHM\PROYECTOFINAL\FORTNITEHOUSE-OPENGL\OPENGL\EXTERNAL LIBRARIES\GLM\GLM\GTC\EPSILON.HPP
C:\USERS\ANGEL\DESKTOP\LABCGEIHM\PROYECTOFINAL\FORTNITEHOUSE-OPENGL\OPENGL\EXTERNAL LIBRARIES\GLM\GLM\GTC\EPSILON.INL
C:\USERS\ANGEL\DESKTOP\LABCGEIHM\PROYECTOFINAL\FORTNITEHOUSE-OPENGL\OPENGL\EXTERNAL LIBRARIES\GLM\GLM\GTC\QUATERNION_SIMD.INL
C:\USERS\ANGEL\DESKTOP\LABCGEIHM\PROYECTOFINAL\FORTNITEHOUSE-OPENGL\OPENGL\EXTERNAL LIBRARIES\GLM\GLM\GTC\VEC1.HPP
C:\USERS\ANGEL\DESKTOP\LABCGEIHM\PROYECTOFINAL\FORTNITEHOUSE-OPENGL\OPENGL\EXTERNAL LIBRARIES\GLM\GLM\EXT\VECTOR_BOOL1.HPP
C:\USERS\ANGEL\DESKTOP\LABCGEIHM\PROYECTOFINAL\FORTNITEHOUSE-OPENGL\OPENGL\EXTERNAL LIBRARIES\GLM\GLM\EXT\VECTOR_BOOL1_PRECISION.HPP
C:\USERS\ANGEL\DESKTOP\LABCGEIHM\PROYECTOFINAL\FORTNITEHOUSE-OPENGL\OPENGL\EXTERNAL LIBRARIES\GLM\GLM\EXT\VECTOR_FLOAT1.HPP
C:\USERS\ANGEL\DESKTOP\LABCGEIHM\PROYECTOFINAL\FORTNITEHOUSE-OPENGL\OPENGL\EXTERNAL LIBRARIES\GLM\GLM\EXT\VECTOR_FLOAT1_PRECISION.HPP
C:\USERS\ANGEL\DESKTOP\LABCGEIHM\PROYECTOFINAL\FORTNITEHOUSE-OPENGL\OPENGL\EXTERNAL LIBRARIES\GLM\GLM\EXT\VECTOR_DOUBLE1.HPP
C:\USERS\ANGEL\DESKTOP\LABCGEIHM\PROYECTOFINAL\FORTNITEHOUSE-OPENGL\OPENGL\EXTERNAL LIBRARIES\GLM\GLM\EXT\VECTOR_DOUBLE1_PRECISION.HPP
C:\USERS\ANGEL\DESKTOP\LABCGEIHM\PROYECTOFINAL\FORTNITEHOUSE-OPENGL\OPENGL\EXTERNAL LIBRARIES\GLM\GLM\EXT\VECTOR_INT1.HPP
C:\USERS\ANGEL\DESKTOP\LABCGEIHM\PROYECTOFINAL\FORTNITEHOUSE-OPENGL\OPENGL\EXTERNAL LIBRARIES\GLM\GLM\EXT\VECTOR_INT1_PRECISION.HPP
C:\USERS\ANGEL\DESKTOP\LABCGEIHM\PROYECTOFINAL\FORTNITEHOUSE-OPENGL\OPENGL\EXTERNAL LIBRARIES\GLM\GLM\EXT\VECTOR_UINT1.HPP
C:\USERS\ANGEL\DESKTOP\LABCGEIHM\PROYECTOFINAL\FORTNITEHOUSE-OPENGL\OPENGL\EXTERNAL LIBRARIES\GLM\GLM\EXT\VECTOR_UINT1_PRECISION.HPP
C:\USERS\ANGEL\DESKTOP\LABCGEIHM\PROYECTOFINAL\FORTNITEHOUSE-OPENGL\OPENGL\EXTERNAL LIBRARIES\GLM\GLM\GTC\TYPE_PTR.INL
C:\USERS\ANGEL\DESKTOP\LABCGEIHM\PROYECTOFINAL\FORTNITEHOUSE-OPENGL\OPENGL\FORTNITE\SOIL2\SOIL2.H
C:\USERS\ANGEL\DESKTOP\LABCGEIHM\PROYECTOFINAL\FORTNITEHOUSE-OPENGL\OPENGL\FORTNITE\SHADER.H
C:\PROGRAM FILES (X86)\MICROSOFT VISUAL STUDIO\2019\ENTERPRISE\VC\TOOLS\MSVC\14.28.29333\INCLUDE\STRING
C:\PROGRAM FILES (X86)\MICROSOFT VISUAL STUDIO\2019\ENTERPRISE\VC\TOOLS\MSVC\14.28.29333\INCLUDE\CCTYPE
C:\PROGRAM FILES (X86)\MICROSOFT VISUAL STUDIO\2019\ENTERPRISE\VC\TOOLS\MSVC\14.28.29333\INCLUDE\FSTREAM
C:\PROGRAM FILES (X86)\MICROSOFT VISUAL STUDIO\2019\ENTERPRISE\VC\TOOLS\MSVC\14.28.29333\INCLUDE\SSTREAM
C:\USERS\ANGEL\DESKTOP\LABCGEIHM\PROYECTOFINAL\FORTNITEHOUSE-OPENGL\OPENGL\FORTNITE\CAMERA.H
C:\PROGRAM FILES (X86)\MICROSOFT VISUAL STUDIO\2019\ENTERPRISE\VC\TOOLS\MSVC\14.28.29333\INCLUDE\VECTOR
C:\USERS\ANGEL\DESKTOP\LABCGEIHM\PROYECTOFINAL\FORTNITEHOUSE-OPENGL\OPENGL\FORTNITE\MODEL.H
C:\PROGRAM FILES (X86)\MICROSOFT VISUAL STUDIO\2019\ENTERPRISE\VC\TOOLS\MSVC\14.28.29333\INCLUDE\MAP
C:\PROGRAM FILES (X86)\MICROSOFT VISUAL STUDIO\2019\ENTERPRISE\VC\TOOLS\MSVC\14.28.29333\INCLUDE\TUPLE
C:\PROGRAM FILES (X86)\MICROSOFT VISUAL STUDIO\2019\ENTERPRISE\VC\TOOLS\MSVC\14.28.29333\INCLUDE\XTREE
C:\USERS\ANGEL\DESKTOP\LABCGEIHM\PROYECTOFINAL\FORTNITEHOUSE-OPENGL\OPENGL\EXTERNAL LIBRARIES\ASSIMP\INCLUDE\ASSIMP\IMPORTER.HPP
C:\USERS\ANGEL\DESKTOP\LABCGEIHM\PROYECTOFINAL\FORTNITEHOUSE-OPENGL\OPENGL\EXTERNAL LIBRARIES\ASSIMP\INCLUDE\ASSIMP\TYPES.H
C:\USERS\ANGEL\DESKTOP\LABCGEIHM\PROYECTOFINAL\FORTNITEHOUSE-OPENGL\OPENGL\EXTERNAL LIBRARIES\ASSIMP\INCLUDE\ASSIMP\DEFS.H
C:\USERS\ANGEL\DESKTOP\LABCGEIHM\PROYECTOFINAL\FORTNITEHOUSE-OPENGL\OPENGL\EXTERNAL LIBRARIES\ASSIMP\INCLUDE\ASSIMP\CONFIG.H
C:\USERS\ANGEL\DESKTOP\LABCGEIHM\PROYECTOFINAL\FORTNITEHOUSE-OPENGL\OPENGL\EXTERNAL LIBRARIES\ASSIMP\INCLUDE\ASSIMP\VECTOR3.H
C:\USERS\ANGEL\DESKTOP\LABCGEIHM\PROYECTOFINAL\FORTNITEHOUSE-OPENGL\OPENGL\EXTERNAL LIBRARIES\ASSIMP\INCLUDE\ASSIMP\VECTOR2.H
C:\USERS\ANGEL\DESKTOP\LABCGEIHM\PROYECTOFINAL\FORTNITEHOUSE-OPENGL\OPENGL\EXTERNAL LIBRARIES\ASSIMP\INCLUDE\ASSIMP\COMPILER\PUSHPACK1.H
C:\USERS\ANGEL\DESKTOP\LABCGEIHM\PROYECTOFINAL\FORTNITEHOUSE-OPENGL\OPENGL\EXTERNAL LIBRARIES\ASSIMP\INCLUDE\ASSIMP\COMPILER\POPPACK1.H
C:\USERS\ANGEL\DESKTOP\LABCGEIHM\PROYECTOFINAL\FORTNITEHOUSE-OPENGL\OPENGL\EXTERNAL LIBRARIES\ASSIMP\INCLUDE\ASSIMP\COLOR4.H
C:\USERS\ANGEL\DESKTOP\LABCGEIHM\PROYECTOFINAL\FORTNITEHOUSE-OPENGL\OPENGL\EXTERNAL LIBRARIES\ASSIMP\INCLUDE\ASSIMP\MATRIX3X3.H
C:\USERS\ANGEL\DESKTOP\LABCGEIHM\PROYECTOFINAL\FORTNITEHOUSE-OPENGL\OPENGL\EXTERNAL LIBRARIES\ASSIMP\INCLUDE\ASSIMP\MATRIX4X4.H
C:\USERS\ANGEL\DESKTOP\LABCGEIHM\PROYECTOFINAL\FORTNITEHOUSE-OPENGL\OPENGL\EXTERNAL LIBRARIES\ASSIMP\INCLUDE\ASSIMP\QUATERNION.H
C:\USERS\ANGEL\DESKTOP\LABCGEIHM\PROYECTOFINAL\FORTNITEHOUSE-OPENGL\OPENGL\EXTERNAL LIBRARIES\ASSIMP\INCLUDE\ASSIMP\VECTOR2.INL
C:\USERS\ANGEL\DESKTOP\LABCGEIHM\PROYECTOFINAL\FORTNITEHOUSE-OPENGL\OPENGL\EXTERNAL LIBRARIES\ASSIMP\INCLUDE\ASSIMP\VECTOR3.INL
C:\USERS\ANGEL\DESKTOP\LABCGEIHM\PROYECTOFINAL\FORTNITEHOUSE-OPENGL\OPENGL\EXTERNAL LIBRARIES\ASSIMP\INCLUDE\ASSIMP\COLOR4.INL
C:\USERS\ANGEL\DESKTOP\LABCGEIHM\PROYECTOFINAL\FORTNITEHOUSE-OPENGL\OPENGL\EXTERNAL LIBRARIES\ASSIMP\INCLUDE\ASSIMP\QUATERNION.INL
C:\USERS\ANGEL\DESKTOP\LABCGEIHM\PROYECTOFINAL\FORTNITEHOUSE-OPENGL\OPENGL\EXTERNAL LIBRARIES\ASSIMP\INCLUDE\ASSIMP\MATRIX3X3.INL
C:\PROGRAM FILES (X86)\MICROSOFT VISUAL STUDIO\2019\ENTERPRISE\VC\TOOLS\MSVC\14.28.29333\INCLUDE\ALGORITHM
C:\USERS\ANGEL\DESKTOP\LABCGEIHM\PROYECTOFINAL\FORTNITEHOUSE-OPENGL\OPENGL\EXTERNAL LIBRARIES\ASSIMP\INCLUDE\ASSIMP\MATRIX4X4.INL
C:\USERS\ANGEL\DESKTOP\LABCGEIHM\PROYECTOFINAL\FORTNITEHOUSE-OPENGL\OPENGL\EXTERNAL LIBRARIES\ASSIMP\INCLUDE\ASSIMP\SCENE.H
C:\USERS\ANGEL\DESKTOP\LABCGEIHM\PROYECTOFINAL\FORTNITEHOUSE-OPENGL\OPENGL\EXTERNAL LIBRARIES\ASSIMP\INCLUDE\ASSIMP\TEXTURE.H
C:\USERS\ANGEL\DESKTOP\LABCGEIHM\PROYECTOFINAL\FORTNITEHOUSE-OPENGL\OPENGL\EXTERNAL LIBRARIES\ASSIMP\INCLUDE\ASSIMP\MESH.H
C:\USERS\ANGEL\DESKTOP\LABCGEIHM\PROYECTOFINAL\FORTNITEHOUSE-OPENGL\OPENGL\EXTERNAL LIBRARIES\ASSIMP\INCLUDE\ASSIMP\LIGHT.H
C:\USERS\ANGEL\DESKTOP\LABCGEIHM\PROYECTOFINAL\FORTNITEHOUSE-OPENGL\OPENGL\EXTERNAL LIBRARIES\ASSIMP\INCLUDE\ASSIMP\CAMERA.H
C:\USERS\ANGEL\DESKTOP\LABCGEIHM\PROYECTOFINAL\FORTNITEHOUSE-OPENGL\OPENGL\EXTERNAL LIBRARIES\ASSIMP\INCLUDE\ASSIMP\MATERIAL.H
C:\USERS\ANGEL\DESKTOP\LABCGEIHM\PROYECTOFINAL\FORTNITEHOUSE-OPENGL\OPENGL\EXTERNAL LIBRARIES\ASSIMP\INCLUDE\ASSIMP\MATERIAL.INL
C:\USERS\ANGEL\DESKTOP\LABCGEIHM\PROYECTOFINAL\FORTNITEHOUSE-OPENGL\OPENGL\EXTERNAL LIBRARIES\ASSIMP\INCLUDE\ASSIMP\ANIM.H
C:\USERS\ANGEL\DESKTOP\LABCGEIHM\PROYECTOFINAL\FORTNITEHOUSE-OPENGL\OPENGL\EXTERNAL LIBRARIES\ASSIMP\INCLUDE\ASSIMP\METADATA.H
C:\USERS\ANGEL\DESKTOP\LABCGEIHM\PROYECTOFINAL\FORTNITEHOUSE-OPENGL\OPENGL\EXTERNAL LIBRARIES\ASSIMP\INCLUDE\ASSIMP\POSTPROCESS.H
C:\USERS\ANGEL\DESKTOP\LABCGEIHM\PROYECTOFINAL\FORTNITEHOUSE-OPENGL\OPENGL\FORTNITE\MESH.H
C:\USERS\ANGEL\DESKTOP\LABCGEIHM\PROYECTOFINAL\FORTNITEHOUSE-OPENGL\OPENGL\FORTNITE\TEXTURE.H
^C:\USERS\ANGEL\DESKTOP\LABCGEIHM\PROYECTOFINAL\FORNITEHOUSEOPENGL\FORTNITE\MAIN.CPP
C:\WINDOWS\GLOBALIZATION\SORTING\SORTDEFAULT.NLS
C:\PROGRAM FILES (X86)\MICROSOFT VISUAL STUDIO\2019\ENTERPRISE\VC\TOOLS\MSVC\14.28.29333\BIN\HOSTX86\X86\3082\CLUI.DLL
C:\WINDOWS\SYSTEM32\TZRES.DLL
C:\PROGRAM FILES (X86)\MICROSOFT VISUAL STUDIO\2019\ENTERPRISE\VC\TOOLS\MSVC\14.28.29333\INCLUDE\IOSTREAM
C:\PROGRAM FILES (X86)\MICROSOFT VISUAL STUDIO\2019\ENTERPRISE\VC\TOOLS\MSVC\14.28.29333\INCLUDE\YVALS_CORE.H
C:\PROGRAM FILES (X86)\MICROSOFT VISUAL STUDIO\2019\ENTERPRISE\VC\TOOLS\MSVC\14.28.29333\INCLUDE\VCRUNTIME.H
C:\PROGRAM FILES (X86)\MICROSOFT VISUAL STUDIO\2019\ENTERPRISE\VC\TOOLS\MSVC\14.28.29333\INCLUDE\SAL.H
C:\PROGRAM FILES (X86)\MICROSOFT VISUAL STUDIO\2019\ENTERPRISE\VC\TOOLS\MSVC\14.28.29333\INCLUDE\CONCURRENCYSAL.H
C:\PROGRAM FILES (X86)\MICROSOFT VISUAL STUDIO\2019\ENTERPRISE\VC\TOOLS\MSVC\14.28.29333\INCLUDE\VADEFS.H
C:\PROGRAM FILES (X86)\MICROSOFT VISUAL STUDIO\2019\ENTERPRISE\VC\TOOLS\MSVC\14.28.29333\INCLUDE\XKEYCHECK.H
C:\PROGRAM FILES (X86)\MICROSOFT VISUAL STUDIO\2019\ENTERPRISE\VC\TOOLS\MSVC\14.28.29333\INCLUDE\ISTREAM
C:\PROGRAM FILES (X86)\MICROSOFT VISUAL STUDIO\2019\ENTERPRISE\VC\TOOLS\MSVC\14.28.29333\INCLUDE\OSTREAM
C:\PROGRAM FILES (X86)\MICROSOFT VISUAL STUDIO\2019\ENTERPRISE\VC\TOOLS\MSVC\14.28.29333\INCLUDE\IOS
C:\PROGRAM FILES (X86)\MICROSOFT VISUAL STUDIO\2019\ENTERPRISE\VC\TOOLS\MSVC\14.28.29333\INCLUDE\XLOCNUM
C:\PROGRAM FILES (X86)\MICROSOFT VISUAL STUDIO\2019\ENTERPRISE\VC\TOOLS\MSVC\14.28.29333\INCLUDE\CLIMITS
C:\PROGRAM FILES (X86)\MICROSOFT VISUAL STUDIO\2019\ENTERPRISE\VC\TOOLS\MSVC\14.28.29333\INCLUDE\LIMITS.H
C:\PROGRAM FILES (X86)\MICROSOFT VISUAL STUDIO\2019\ENTERPRISE\VC\TOOLS\MSVC\14.28.29333\INCLUDE\CMATH
C:\PROGRAM FILES (X86)\MICROSOFT VISUAL STUDIO\2019\ENTERPRISE\VC\TOOLS\MSVC\14.28.29333\INCLUDE\YVALS.H
C:\PROGRAM FILES (X86)\WINDOWS KITS\10\INCLUDE\10.0.18362.0\UCRT\CRTDBG.H
C:\PROGRAM FILES (X86)\WINDOWS KITS\10\INCLUDE\10.0.18362.0\UCRT\CORECRT.H
C:\PROGRAM FILES (X86)\MICROSOFT VISUAL STUDIO\2019\ENTERPRISE\VC\TOOLS\MSVC\14.28.29333\INCLUDE\VCRUNTIME_NEW_DEBUG.H
C:\PROGRAM FILES (X86)\MICROSOFT VISUAL STUDIO\2019\ENTERPRISE\VC\TOOLS\MSVC\14.28.29333\INCLUDE\VCRUNTIME_NEW.H
C:\PROGRAM FILES (X86)\MICROSOFT VISUAL STUDIO\2019\ENTERPRISE\VC\TOOLS\MSVC\14.28.29333\INCLUDE\CRTDEFS.H
C:\PROGRAM FILES (X86)\MICROSOFT VISUAL STUDIO\2019\ENTERPRISE\VC\TOOLS\MSVC\14.28.29333\INCLUDE\USE_ANSI.H
C:\PROGRAM FILES (X86)\MICROSOFT VISUAL STUDIO\2019\ENTERPRISE\VC\TOOLS\MSVC\14.28.29333\INCLUDE\CSTDLIB
C:\PROGRAM FILES (X86)\WINDOWS KITS\10\INCLUDE\10.0.18362.0\UCRT\MATH.H
C:\PROGRAM FILES (X86)\WINDOWS KITS\10\INCLUDE\10.0.18362.0\UCRT\CORECRT_MATH.H
C:\PROGRAM FILES (X86)\WINDOWS KITS\10\INCLUDE\10.0.18362.0\UCRT\STDLIB.H
C:\PROGRAM FILES (X86)\WINDOWS KITS\10\INCLUDE\10.0.18362.0\UCRT\CORECRT_MALLOC.H
C:\PROGRAM FILES (X86)\WINDOWS KITS\10\INCLUDE\10.0.18362.0\UCRT\CORECRT_SEARCH.H
C:\PROGRAM FILES (X86)\WINDOWS KITS\10\INCLUDE\10.0.18362.0\UCRT\STDDEF.H
C:\PROGRAM FILES (X86)\WINDOWS KITS\10\INCLUDE\10.0.18362.0\UCRT\CORECRT_WSTDLIB.H
C:\PROGRAM FILES (X86)\MICROSOFT VISUAL STUDIO\2019\ENTERPRISE\VC\TOOLS\MSVC\14.28.29333\INCLUDE\XTR1COMMON
C:\PROGRAM FILES (X86)\MICROSOFT VISUAL STUDIO\2019\ENTERPRISE\VC\TOOLS\MSVC\14.28.29333\INCLUDE\CSTDIO
C:\PROGRAM FILES (X86)\WINDOWS KITS\10\INCLUDE\10.0.18362.0\UCRT\STDIO.H
C:\PROGRAM FILES (X86)\WINDOWS KITS\10\INCLUDE\10.0.18362.0\UCRT\CORECRT_WSTDIO.H
C:\PROGRAM FILES (X86)\WINDOWS KITS\10\INCLUDE\10.0.18362.0\UCRT\CORECRT_STDIO_CONFIG.H
C:\PROGRAM FILES (X86)\MICROSOFT VISUAL STUDIO\2019\ENTERPRISE\VC\TOOLS\MSVC\14.28.29333\INCLUDE\ITERATOR
C:\PROGRAM FILES (X86)\MICROSOFT VISUAL STUDIO\2019\ENTERPRISE\VC\TOOLS\MSVC\14.28.29333\INCLUDE\IOSFWD
C:\PROGRAM FILES (X86)\MICROSOFT VISUAL STUDIO\2019\ENTERPRISE\VC\TOOLS\MSVC\14.28.29333\INCLUDE\CSTRING
C:\PROGRAM FILES (X86)\WINDOWS KITS\10\INCLUDE\10.0.18362.0\UCRT\STRING.H
C:\PROGRAM FILES (X86)\WINDOWS KITS\10\INCLUDE\10.0.18362.0\UCRT\CORECRT_MEMORY.H
C:\PROGRAM FILES (X86)\WINDOWS KITS\10\INCLUDE\10.0.18362.0\UCRT\CORECRT_MEMCPY_S.H
C:\PROGRAM FILES (X86)\WINDOWS KITS\10\INCLUDE\10.0.18362.0\UCRT\ERRNO.H
C:\PROGRAM FILES (X86)\MICROSOFT VISUAL STUDIO\2019\ENTERPRISE\VC\TOOLS\MSVC\14.28.29333\INCLUDE\VCRUNTIME_STRING.H
C:\PROGRAM FILES (X86)\WINDOWS KITS\10\INCLUDE\10.0.18362.0\UCRT\CORECRT_WSTRING.H
C:\PROGRAM FILES (X86)\MICROSOFT VISUAL STUDIO\2019\ENTERPRISE\VC\TOOLS\MSVC\14.28.29333\INCLUDE\CWCHAR
C:\PROGRAM FILES (X86)\WINDOWS KITS\10\INCLUDE\10.0.18362.0\UCRT\WCHAR.H
C:\PROGRAM FILES (X86)\WINDOWS KITS\10\INCLUDE\10.0.18362.0\UCRT\CORECRT_WCONIO.H
C:\PROGRAM FILES (X86)\WINDOWS KITS\10\INCLUDE\10.0.18362.0\UCRT\CORECRT_WCTYPE.H
C:\PROGRAM FILES (X86)\WINDOWS KITS\10\INCLUDE\10.0.18362.0\UCRT\CORECRT_WDIRECT.H
C:\PROGRAM FILES (X86)\WINDOWS KITS\10\INCLUDE\10.0.18362.0\UCRT\CORECRT_WIO.H
C:\PROGRAM FILES (X86)\WINDOWS KITS\10\INCLUDE\10.0.18362.0\UCRT\CORECRT_SHARE.H
C:\PROGRAM FILES (X86)\WINDOWS KITS\10\INCLUDE\10.0.18362.0\UCRT\CORECRT_WPROCESS.H
C:\PROGRAM FILES (X86)\WINDOWS KITS\10\INCLUDE\10.0.18362.0\UCRT\CORECRT_WTIME.H
C:\PROGRAM FILES (X86)\WINDOWS KITS\10\INCLUDE\10.0.18362.0\UCRT\SYS\STAT.H
C:\PROGRAM FILES (X86)\WINDOWS KITS\10\INCLUDE\10.0.18362.0\UCRT\SYS\TYPES.H
C:\PROGRAM FILES (X86)\MICROSOFT VISUAL STUDIO\2019\ENTERPRISE\VC\TOOLS\MSVC\14.28.29333\INCLUDE\XSTDDEF
C:\PROGRAM FILES (X86)\MICROSOFT VISUAL STUDIO\2019\ENTERPRISE\VC\TOOLS\MSVC\14.28.29333\INCLUDE\CSTDDEF
C:\PROGRAM FILES (X86)\MICROSOFT VISUAL STUDIO\2019\ENTERPRISE\VC\TOOLS\MSVC\14.28.29333\INCLUDE\INITIALIZER_LIST
C:\PROGRAM FILES (X86)\MICROSOFT VISUAL STUDIO\2019\ENTERPRISE\VC\TOOLS\MSVC\14.28.29333\INCLUDE\XUTILITY
C:\PROGRAM FILES (X86)\MICROSOFT VISUAL STUDIO\2019\ENTERPRISE\VC\TOOLS\MSVC\14.28.29333\INCLUDE\UTILITY
C:\PROGRAM FILES (X86)\MICROSOFT VISUAL STUDIO\2019\ENTERPRISE\VC\TOOLS\MSVC\14.28.29333\INCLUDE\TYPE_TRAITS
C:\PROGRAM FILES (X86)\MICROSOFT VISUAL STUDIO\2019\ENTERPRISE\VC\TOOLS\MSVC\14.28.29333\INCLUDE\STREAMBUF
C:\PROGRAM FILES (X86)\MICROSOFT VISUAL STUDIO\2019\ENTERPRISE\VC\TOOLS\MSVC\14.28.29333\INCLUDE\XIOSBASE
C:\PROGRAM FILES (X86)\WINDOWS KITS\10\INCLUDE\10.0.18362.0\UCRT\SHARE.H
C:\PROGRAM FILES (X86)\MICROSOFT VISUAL STUDIO\2019\ENTERPRISE\VC\TOOLS\MSVC\14.28.29333\INCLUDE\SYSTEM_ERROR
C:\PROGRAM FILES (X86)\MICROSOFT VISUAL STUDIO\2019\ENTERPRISE\VC\TOOLS\MSVC\14.28.29333\INCLUDE\__MSVC_SYSTEM_ERROR_ABI.HPP
C:\PROGRAM FILES (X86)\MICROSOFT VISUAL STUDIO\2019\ENTERPRISE\VC\TOOLS\MSVC\14.28.29333\INCLUDE\CERRNO
C:\PROGRAM FILES (X86)\MICROSOFT VISUAL STUDIO\2019\ENTERPRISE\VC\TOOLS\MSVC\14.28.29333\INCLUDE\STDEXCEPT
C:\PROGRAM FILES (X86)\MICROSOFT VISUAL STUDIO\2019\ENTERPRISE\VC\TOOLS\MSVC\14.28.29333\INCLUDE\EXCEPTION
C:\PROGRAM FILES (X86)\WINDOWS KITS\10\INCLUDE\10.0.18362.0\UCRT\MALLOC.H
C:\PROGRAM FILES (X86)\MICROSOFT VISUAL STUDIO\2019\ENTERPRISE\VC\TOOLS\MSVC\14.28.29333\INCLUDE\VCRUNTIME_EXCEPTION.H
C:\PROGRAM FILES (X86)\MICROSOFT VISUAL STUDIO\2019\ENTERPRISE\VC\TOOLS\MSVC\14.28.29333\INCLUDE\EH.H
C:\PROGRAM FILES (X86)\WINDOWS KITS\10\INCLUDE\10.0.18362.0\UCRT\CORECRT_TERMINATE.H
C:\PROGRAM FILES (X86)\MICROSOFT VISUAL STUDIO\2019\ENTERPRISE\VC\TOOLS\MSVC\14.28.29333\INCLUDE\XSTRING
C:\PROGRAM FILES (X86)\MICROSOFT VISUAL STUDIO\2019\ENTERPRISE\VC\TOOLS\MSVC\14.28.29333\INCLUDE\XMEMORY
C:\PROGRAM FILES (X86)\MICROSOFT VISUAL STUDIO\2019\ENTERPRISE\VC\TOOLS\MSVC\14.28.29333\INCLUDE\CSTDINT
C:\PROGRAM FILES (X86)\MICROSOFT VISUAL STUDIO\2019\ENTERPRISE\VC\TOOLS\MSVC\14.28.29333\INCLUDE\STDINT.H
C:\PROGRAM FILES (X86)\MICROSOFT VISUAL STUDIO\2019\ENTERPRISE\VC\TOOLS\MSVC\14.28.29333\INCLUDE\LIMITS
C:\PROGRAM FILES (X86)\MICROSOFT VISUAL STUDIO\2019\ENTERPRISE\VC\TOOLS\MSVC\14.28.29333\INCLUDE\CFLOAT
C:\PROGRAM FILES (X86)\WINDOWS KITS\10\INCLUDE\10.0.18362.0\UCRT\FLOAT.H
C:\PROGRAM FILES (X86)\MICROSOFT VISUAL STUDIO\2019\ENTERPRISE\VC\TOOLS\MSVC\14.28.29333\INCLUDE\INTRIN0.H
C:\PROGRAM FILES (X86)\MICROSOFT VISUAL STUDIO\2019\ENTERPRISE\VC\TOOLS\MSVC\14.28.29333\INCLUDE\ISA_AVAILABILITY.H
C:\PROGRAM FILES (X86)\MICROSOFT VISUAL STUDIO\2019\ENTERPRISE\VC\TOOLS\MSVC\14.28.29333\INCLUDE\NEW
C:\PROGRAM FILES (X86)\MICROSOFT VISUAL STUDIO\2019\ENTERPRISE\VC\TOOLS\MSVC\14.28.29333\INCLUDE\XATOMIC.H
C:\PROGRAM FILES (X86)\MICROSOFT VISUAL STUDIO\2019\ENTERPRISE\VC\TOOLS\MSVC\14.28.29333\INCLUDE\XCALL_ONCE.H
C:\PROGRAM FILES (X86)\MICROSOFT VISUAL STUDIO\2019\ENTERPRISE\VC\TOOLS\MSVC\14.28.29333\INCLUDE\XERRC.H
C:\PROGRAM FILES (X86)\MICROSOFT VISUAL STUDIO\2019\ENTERPRISE\VC\TOOLS\MSVC\14.28.29333\INCLUDE\ATOMIC
C:\PROGRAM FILES (X86)\MICROSOFT VISUAL STUDIO\2019\ENTERPRISE\VC\TOOLS\MSVC\14.28.29333\INCLUDE\XTHREADS.H
C:\PROGRAM FILES (X86)\MICROSOFT VISUAL STUDIO\2019\ENTERPRISE\VC\TOOLS\MSVC\14.28.29333\INCLUDE\XTIMEC.H
C:\PROGRAM FILES (X86)\WINDOWS KITS\10\INCLUDE\10.0.18362.0\UCRT\TIME.H
C:\PROGRAM FILES (X86)\MICROSOFT VISUAL STUDIO\2019\ENTERPRISE\VC\TOOLS\MSVC\14.28.29333\INCLUDE\XLOCALE
C:\PROGRAM FILES (X86)\MICROSOFT VISUAL STUDIO\2019\ENTERPRISE\VC\TOOLS\MSVC\14.28.29333\INCLUDE\MEMORY
C:\PROGRAM FILES (X86)\MICROSOFT VISUAL STUDIO\2019\ENTERPRISE\VC\TOOLS\MSVC\14.28.29333\INCLUDE\TYPEINFO
C:\PROGRAM FILES (X86)\MICROSOFT VISUAL STUDIO\2019\ENTERPRISE\VC\TOOLS\MSVC\14.28.29333\INCLUDE\VCRUNTIME_TYPEINFO.H
C:\PROGRAM FILES (X86)\MICROSOFT VISUAL STUDIO\2019\ENTERPRISE\VC\TOOLS\MSVC\14.28.29333\INCLUDE\XFACET
C:\PROGRAM FILES (X86)\MICROSOFT VISUAL STUDIO\2019\ENTERPRISE\VC\TOOLS\MSVC\14.28.29333\INCLUDE\XLOCINFO
C:\PROGRAM FILES (X86)\MICROSOFT VISUAL STUDIO\2019\ENTERPRISE\VC\TOOLS\MSVC\14.28.29333\INCLUDE\XLOCINFO.H
C:\PROGRAM FILES (X86)\WINDOWS KITS\10\INCLUDE\10.0.18362.0\UCRT\CTYPE.H
C:\PROGRAM FILES (X86)\WINDOWS KITS\10\INCLUDE\10.0.18362.0\UCRT\LOCALE.H
C:\USERS\ANGEL\DESKTOP\LABCGEIHM\PROYECTOFINAL\FORNITEHOUSEOPENGL\EXTERNAL LIBRARIES\GLEW\INCLUDE\GL\GLEW.H
C:\PROGRAM FILES (X86)\WINDOWS KITS\10\INCLUDE\10.0.18362.0\UM\GL\GLU.H
C:\PROGRAM FILES (X86)\WINDOWS KITS\10\INCLUDE\10.0.18362.0\SHARED\WINAPIFAMILY.H
C:\PROGRAM FILES (X86)\WINDOWS KITS\10\INCLUDE\10.0.18362.0\SHARED\WINPACKAGEFAMILY.H
C:\PROGRAM FILES (X86)\WINDOWS KITS\10\INCLUDE\10.0.18362.0\UM\GL\GL.H
C:\USERS\ANGEL\DESKTOP\LABCGEIHM\PROYECTOFINAL\FORNITEHOUSEOPENGL\EXTERNAL LIBRARIES\GLFW\INCLUDE\GLFW\GLFW3.H
C:\USERS\ANGEL\DESKTOP\LABCGEIHM\PROYECTOFINAL\FORNITEHOUSEOPENGL\FORTNITE\STB_IMAGE.H
C:\USERS\ANGEL\DESKTOP\LABCGEIHM\PROYECTOFINAL\FORNITEHOUSEOPENGL\EXTERNAL LIBRARIES\GLM\GLM\GLM.HPP
C:\USERS\ANGEL\DESKTOP\LABCGEIHM\PROYECTOFINAL\FORNITEHOUSEOPENGL\EXTERNAL LIBRARIES\GLM\GLM\DETAIL\_FIXES.HPP
C:\USERS\ANGEL\DESKTOP\LABCGEIHM\PROYECTOFINAL\FORNITEHOUSEOPENGL\EXTERNAL LIBRARIES\GLM\GLM\DETAIL\SETUP.HPP
C:\PROGRAM FILES (X86)\MICROSOFT VISUAL STUDIO\2019\ENTERPRISE\VC\TOOLS\MSVC\14.28.29333\INCLUDE\CASSERT
C:\PROGRAM FILES (X86)\WINDOWS KITS\10\INCLUDE\10.0.18362.0\UCRT\ASSERT.H
C:\USERS\ANGEL\DESKTOP\LABCGEIHM\PROYECTOFINAL\FORNITEHOUSEOPENGL\EXTERNAL LIBRARIES\GLM\GLM\SIMD\PLATFORM.H
C:\PROGRAM FILES (X86)\MICROSOFT VISUAL STUDIO\2019\ENTERPRISE\VC\TOOLS\MSVC\14.28.29333\INCLUDE\EMMINTRIN.H
C:\PROGRAM FILES (X86)\MICROSOFT VISUAL STUDIO\2019\ENTERPRISE\VC\TOOLS\MSVC\14.28.29333\INCLUDE\XMMINTRIN.H
C:\PROGRAM FILES (X86)\MICROSOFT VISUAL STUDIO\2019\ENTERPRISE\VC\TOOLS\MSVC\14.28.29333\INCLUDE\MMINTRIN.H
C:\USERS\ANGEL\DESKTOP\LABCGEIHM\PROYECTOFINAL\FORNITEHOUSEOPENGL\EXTERNAL LIBRARIES\GLM\GLM\FWD.HPP
C:\USERS\ANGEL\DESKTOP\LABCGEIHM\PROYECTOFINAL\FORNITEHOUSEOPENGL\EXTERNAL LIBRARIES\GLM\GLM\DETAIL\QUALIFIER.HPP
C:\USERS\ANGEL\DESKTOP\LABCGEIHM\PROYECTOFINAL\FORNITEHOUSEOPENGL\EXTERNAL LIBRARIES\GLM\GLM\VEC2.HPP
C:\USERS\ANGEL\DESKTOP\LABCGEIHM\PROYECTOFINAL\FORNITEHOUSEOPENGL\EXTERNAL LIBRARIES\GLM\GLM\EXT\VECTOR_BOOL2.HPP
C:\USERS\ANGEL\DESKTOP\LABCGEIHM\PROYECTOFINAL\FORNITEHOUSEOPENGL\EXTERNAL LIBRARIES\GLM\GLM\DETAIL\TYPE_VEC2.HPP
C:\USERS\ANGEL\DESKTOP\LABCGEIHM\PROYECTOFINAL\FORNITEHOUSEOPENGL\EXTERNAL LIBRARIES\GLM\GLM\DETAIL\TYPE_VEC2.INL
C:\USERS\ANGEL\DESKTOP\LABCGEIHM\PROYECTOFINAL\FORNITEHOUSEOPENGL\EXTERNAL LIBRARIES\GLM\GLM\DETAIL\COMPUTE_VECTOR_RELATIONAL.HPP
C:\USERS\ANGEL\DESKTOP\LABCGEIHM\PROYECTOFINAL\FORNITEHOUSEOPENGL\EXTERNAL LIBRARIES\GLM\GLM\EXT\VECTOR_BOOL2_PRECISION.HPP
C:\USERS\ANGEL\DESKTOP\LABCGEIHM\PROYECTOFINAL\FORNITEHOUSEOPENGL\EXTERNAL LIBRARIES\GLM\GLM\EXT\VECTOR_FLOAT2.HPP
C:\USERS\ANGEL\DESKTOP\LABCGEIHM\PROYECTOFINAL\FORNITEHOUSEOPENGL\EXTERNAL LIBRARIES\GLM\GLM\EXT\VECTOR_FLOAT2_PRECISION.HPP
C:\USERS\ANGEL\DESKTOP\LABCGEIHM\PROYECTOFINAL\FORNITEHOUSEOPENGL\EXTERNAL LIBRARIES\GLM\GLM\EXT\VECTOR_DOUBLE2.HPP
C:\USERS\ANGEL\DESKTOP\LABCGEIHM\PROYECTOFINAL\FORNITEHOUSEOPENGL\EXTERNAL LIBRARIES\GLM\GLM\EXT\VECTOR_DOUBLE2_PRECISION.HPP
C:\USERS\ANGEL\DESKTOP\LABCGEIHM\PROYECTOFINAL\FORNITEHOUSEOPENGL\EXTERNAL LIBRARIES\GLM\GLM\EXT\VECTOR_INT2.HPP
C:\USERS\ANGEL\DESKTOP\LABCGEIHM\PROYECTOFINAL\FORNITEHOUSEOPENGL\EXTERNAL LIBRARIES\GLM\GLM\EXT\VECTOR_INT2_PRECISION.HPP
C:\USERS\ANGEL\DESKTOP\LABCGEIHM\PROYECTOFINAL\FORNITEHOUSEOPENGL\EXTERNAL LIBRARIES\GLM\GLM\EXT\VECTOR_UINT2.HPP
C:\USERS\ANGEL\DESKTOP\LABCGEIHM\PROYECTOFINAL\FORNITEHOUSEOPENGL\EXTERNAL LIBRARIES\GLM\GLM\EXT\VECTOR_UINT2_PRECISION.HPP
C:\USERS\ANGEL\DESKTOP\LABCGEIHM\PROYECTOFINAL\FORNITEHOUSEOPENGL\EXTERNAL LIBRARIES\GLM\GLM\VEC3.HPP
C:\USERS\ANGEL\DESKTOP\LABCGEIHM\PROYECTOFINAL\FORNITEHOUSEOPENGL\EXTERNAL LIBRARIES\GLM\GLM\EXT\VECTOR_BOOL3.HPP
C:\USERS\ANGEL\DESKTOP\LABCGEIHM\PROYECTOFINAL\FORNITEHOUSEOPENGL\EXTERNAL LIBRARIES\GLM\GLM\DETAIL\TYPE_VEC3.HPP
C:\USERS\ANGEL\DESKTOP\LABCGEIHM\PROYECTOFINAL\FORNITEHOUSEOPENGL\EXTERNAL LIBRARIES\GLM\GLM\DETAIL\TYPE_VEC3.INL
C:\USERS\ANGEL\DESKTOP\LABCGEIHM\PROYECTOFINAL\FORNITEHOUSEOPENGL\EXTERNAL LIBRARIES\GLM\GLM\EXT\VECTOR_BOOL3_PRECISION.HPP
C:\USERS\ANGEL\DESKTOP\LABCGEIHM\PROYECTOFINAL\FORNITEHOUSEOPENGL\EXTERNAL LIBRARIES\GLM\GLM\EXT\VECTOR_FLOAT3.HPP
C:\USERS\ANGEL\DESKTOP\LABCGEIHM\PROYECTOFINAL\FORNITEHOUSEOPENGL\EXTERNAL LIBRARIES\GLM\GLM\EXT\VECTOR_FLOAT3_PRECISION.HPP
C:\USERS\ANGEL\DESKTOP\LABCGEIHM\PROYECTOFINAL\FORNITEHOUSEOPENGL\EXTERNAL LIBRARIES\GLM\GLM\EXT\VECTOR_DOUBLE3.HPP
C:\USERS\ANGEL\DESKTOP\LABCGEIHM\PROYECTOFINAL\FORNITEHOUSEOPENGL\EXTERNAL LIBRARIES\GLM\GLM\EXT\VECTOR_DOUBLE3_PRECISION.HPP
C:\USERS\ANGEL\DESKTOP\LABCGEIHM\PROYECTOFINAL\FORNITEHOUSEOPENGL\EXTERNAL LIBRARIES\GLM\GLM\EXT\VECTOR_INT3.HPP
C:\USERS\ANGEL\DESKTOP\LABCGEIHM\PROYECTOFINAL\FORNITEHOUSEOPENGL\EXTERNAL LIBRARIES\GLM\GLM\EXT\VECTOR_INT3_PRECISION.HPP
C:\USERS\ANGEL\DESKTOP\LABCGEIHM\PROYECTOFINAL\FORNITEHOUSEOPENGL\EXTERNAL LIBRARIES\GLM\GLM\EXT\VECTOR_UINT3.HPP
C:\USERS\ANGEL\DESKTOP\LABCGEIHM\PROYECTOFINAL\FORNITEHOUSEOPENGL\EXTERNAL LIBRARIES\GLM\GLM\EXT\VECTOR_UINT3_PRECISION.HPP
C:\USERS\ANGEL\DESKTOP\LABCGEIHM\PROYECTOFINAL\FORNITEHOUSEOPENGL\EXTERNAL LIBRARIES\GLM\GLM\VEC4.HPP
C:\USERS\ANGEL\DESKTOP\LABCGEIHM\PROYECTOFINAL\FORNITEHOUSEOPENGL\EXTERNAL LIBRARIES\GLM\GLM\EXT\VECTOR_BOOL4.HPP
C:\USERS\ANGEL\DESKTOP\LABCGEIHM\PROYECTOFINAL\FORNITEHOUSEOPENGL\EXTERNAL LIBRARIES\GLM\GLM\DETAIL\TYPE_VEC4.HPP
C:\USERS\ANGEL\DESKTOP\LABCGEIHM\PROYECTOFINAL\FORNITEHOUSEOPENGL\EXTERNAL LIBRARIES\GLM\GLM\DETAIL\TYPE_VEC4.INL
C:\USERS\ANGEL\DESKTOP\LABCGEIHM\PROYECTOFINAL\FORNITEHOUSEOPENGL\EXTERNAL LIBRARIES\GLM\GLM\DETAIL\TYPE_VEC4_SIMD.INL
C:\USERS\ANGEL\DESKTOP\LABCGEIHM\PROYECTOFINAL\FORNITEHOUSEOPENGL\EXTERNAL LIBRARIES\GLM\GLM\EXT\VECTOR_BOOL4_PRECISION.HPP
C:\USERS\ANGEL\DESKTOP\LABCGEIHM\PROYECTOFINAL\FORNITEHOUSEOPENGL\EXTERNAL LIBRARIES\GLM\GLM\EXT\VECTOR_FLOAT4.HPP
C:\USERS\ANGEL\DESKTOP\LABCGEIHM\PROYECTOFINAL\FORNITEHOUSEOPENGL\EXTERNAL LIBRARIES\GLM\GLM\EXT\VECTOR_FLOAT4_PRECISION.HPP
C:\USERS\ANGEL\DESKTOP\LABCGEIHM\PROYECTOFINAL\FORNITEHOUSEOPENGL\EXTERNAL LIBRARIES\GLM\GLM\EXT\VECTOR_DOUBLE4.HPP
C:\USERS\ANGEL\DESKTOP\LABCGEIHM\PROYECTOFINAL\FORNITEHOUSEOPENGL\EXTERNAL LIBRARIES\GLM\GLM\EXT\VECTOR_DOUBLE4_PRECISION.HPP
C:\USERS\ANGEL\DESKTOP\LABCGEIHM\PROYECTOFINAL\FORNITEHOUSEOPENGL\EXTERNAL LIBRARIES\GLM\GLM\EXT\VECTOR_INT4.HPP
C:\USERS\ANGEL\DESKTOP\LABCGEIHM\PROYECTOFINAL\FORNITEHOUSEOPENGL\EXTERNAL LIBRARIES\GLM\GLM\EXT\VECTOR_INT4_PRECISION.HPP
C:\USERS\ANGEL\DESKTOP\LABCGEIHM\PROYECTOFINAL\FORNITEHOUSEOPENGL\EXTERNAL LIBRARIES\GLM\GLM\EXT\VECTOR_UINT4.HPP
C:\USERS\ANGEL\DESKTOP\LABCGEIHM\PROYECTOFINAL\FORNITEHOUSEOPENGL\EXTERNAL LIBRARIES\GLM\GLM\EXT\VECTOR_UINT4_PRECISION.HPP
C:\USERS\ANGEL\DESKTOP\LABCGEIHM\PROYECTOFINAL\FORNITEHOUSEOPENGL\EXTERNAL LIBRARIES\GLM\GLM\MAT2X2.HPP
C:\USERS\ANGEL\DESKTOP\LABCGEIHM\PROYECTOFINAL\FORNITEHOUSEOPENGL\EXTERNAL LIBRARIES\GLM\GLM\EXT\MATRIX_DOUBLE2X2.HPP
C:\USERS\ANGEL\DESKTOP\LABCGEIHM\PROYECTOFINAL\FORNITEHOUSEOPENGL\EXTERNAL LIBRARIES\GLM\GLM\DETAIL\TYPE_MAT2X2.HPP
C:\USERS\ANGEL\DESKTOP\LABCGEIHM\PROYECTOFINAL\FORNITEHOUSEOPENGL\EXTERNAL LIBRARIES\GLM\GLM\DETAIL\TYPE_MAT2X2.INL
C:\USERS\ANGEL\DESKTOP\LABCGEIHM\PROYECTOFINAL\FORNITEHOUSEOPENGL\EXTERNAL LIBRARIES\GLM\GLM\MATRIX.HPP
C:\USERS\ANGEL\DESKTOP\LABCGEIHM\PROYECTOFINAL\FORNITEHOUSEOPENGL\EXTERNAL LIBRARIES\GLM\GLM\MAT2X3.HPP
C:\USERS\ANGEL\DESKTOP\LABCGEIHM\PROYECTOFINAL\FORNITEHOUSEOPENGL\EXTERNAL LIBRARIES\GLM\GLM\EXT\MATRIX_DOUBLE2X3.HPP
C:\USERS\ANGEL\DESKTOP\LABCGEIHM\PROYECTOFINAL\FORNITEHOUSEOPENGL\EXTERNAL LIBRARIES\GLM\GLM\DETAIL\TYPE_MAT2X3.HPP
C:\USERS\ANGEL\DESKTOP\LABCGEIHM\PROYECTOFINAL\FORNITEHOUSEOPENGL\EXTERNAL LIBRARIES\GLM\GLM\DETAIL\TYPE_MAT2X3.INL
C:\USERS\ANGEL\DESKTOP\LABCGEIHM\PROYECTOFINAL\FORNITEHOUSEOPENGL\EXTERNAL LIBRARIES\GLM\GLM\EXT\MATRIX_DOUBLE2X3_PRECISION.HPP
C:\USERS\ANGEL\DESKTOP\LABCGEIHM\PROYECTOFINAL\FORNITEHOUSEOPENGL\EXTERNAL LIBRARIES\GLM\GLM\EXT\MATRIX_FLOAT2X3.HPP
C:\USERS\ANGEL\DESKTOP\LABCGEIHM\PROYECTOFINAL\FORNITEHOUSEOPENGL\EXTERNAL LIBRARIES\GLM\GLM\EXT\MATRIX_FLOAT2X3_PRECISION.HPP
C:\USERS\ANGEL\DESKTOP\LABCGEIHM\PROYECTOFINAL\FORNITEHOUSEOPENGL\EXTERNAL LIBRARIES\GLM\GLM\MAT2X4.HPP
C:\USERS\ANGEL\DESKTOP\LABCGEIHM\PROYECTOFINAL\FORNITEHOUSEOPENGL\EXTERNAL LIBRARIES\GLM\GLM\EXT\MATRIX_DOUBLE2X4.HPP
C:\USERS\ANGEL\DESKTOP\LABCGEIHM\PROYECTOFINAL\FORNITEHOUSEOPENGL\EXTERNAL LIBRARIES\GLM\GLM\DETAIL\TYPE_MAT2X4.HPP
C:\USERS\ANGEL\DESKTOP\LABCGEIHM\PROYECTOFINAL\FORNITEHOUSEOPENGL\EXTERNAL LIBRARIES\GLM\GLM\DETAIL\TYPE_MAT2X4.INL
C:\USERS\ANGEL\DESKTOP\LABCGEIHM\PROYECTOFINAL\FORNITEHOUSEOPENGL\EXTERNAL LIBRARIES\GLM\GLM\EXT\MATRIX_DOUBLE2X4_PRECISION.HPP
C:\USERS\ANGEL\DESKTOP\LABCGEIHM\PROYECTOFINAL\FORNITEHOUSEOPENGL\EXTERNAL LIBRARIES\GLM\GLM\EXT\MATRIX_FLOAT2X4.HPP
C:\USERS\ANGEL\DESKTOP\LABCGEIHM\PROYECTOFINAL\FORNITEHOUSEOPENGL\EXTERNAL LIBRARIES\GLM\GLM\EXT\MATRIX_FLOAT2X4_PRECISION.HPP
C:\USERS\ANGEL\DESKTOP\LABCGEIHM\PROYECTOFINAL\FORNITEHOUSEOPENGL\EXTERNAL LIBRARIES\GLM\GLM\MAT3X2.HPP
C:\USERS\ANGEL\DESKTOP\LABCGEIHM\PROYECTOFINAL\FORNITEHOUSEOPENGL\EXTERNAL LIBRARIES\GLM\GLM\EXT\MATRIX_DOUBLE3X2.HPP
C:\USERS\ANGEL\DESKTOP\LABCGEIHM\PROYECTOFINAL\FORNITEHOUSEOPENGL\EXTERNAL LIBRARIES\GLM\GLM\DETAIL\TYPE_MAT3X2.HPP
C:\USERS\ANGEL\DESKTOP\LABCGEIHM\PROYECTOFINAL\FORNITEHOUSEOPENGL\EXTERNAL LIBRARIES\GLM\GLM\DETAIL\TYPE_MAT3X2.INL
C:\USERS\ANGEL\DESKTOP\LABCGEIHM\PROYECTOFINAL\FORNITEHOUSEOPENGL\EXTERNAL LIBRARIES\GLM\GLM\EXT\MATRIX_DOUBLE3X2_PRECISION.HPP
C:\USERS\ANGEL\DESKTOP\LABCGEIHM\PROYECTOFINAL\FORNITEHOUSEOPENGL\EXTERNAL LIBRARIES\GLM\GLM\EXT\MATRIX_FLOAT3X2.HPP
C:\USERS\ANGEL\DESKTOP\LABCGEIHM\PROYECTOFINAL\FORNITEHOUSEOPENGL\EXTERNAL LIBRARIES\GLM\GLM\EXT\MATRIX_FLOAT3X2_PRECISION.HPP
C:\USERS\ANGEL\DESKTOP\LABCGEIHM\PROYECTOFINAL\FORNITEHOUSEOPENGL\EXTERNAL LIBRARIES\GLM\GLM\MAT3X3.HPP
C:\USERS\ANGEL\DESKTOP\LABCGEIHM\PROYECTOFINAL\FORNITEHOUSEOPENGL\EXTERNAL LIBRARIES\GLM\GLM\EXT\MATRIX_DOUBLE3X3.HPP
C:\USERS\ANGEL\DESKTOP\LABCGEIHM\PROYECTOFINAL\FORNITEHOUSEOPENGL\EXTERNAL LIBRARIES\GLM\GLM\DETAIL\TYPE_MAT3X3.HPP
C:\USERS\ANGEL\DESKTOP\LABCGEIHM\PROYECTOFINAL\FORNITEHOUSEOPENGL\EXTERNAL LIBRARIES\GLM\GLM\DETAIL\TYPE_MAT3X3.INL
C:\USERS\ANGEL\DESKTOP\LABCGEIHM\PROYECTOFINAL\FORNITEHOUSEOPENGL\EXTERNAL LIBRARIES\GLM\GLM\EXT\MATRIX_DOUBLE3X3_PRECISION.HPP
C:\USERS\ANGEL\DESKTOP\LABCGEIHM\PROYECTOFINAL\FORNITEHOUSEOPENGL\EXTERNAL LIBRARIES\GLM\GLM\EXT\MATRIX_FLOAT3X3.HPP
C:\USERS\ANGEL\DESKTOP\LABCGEIHM\PROYECTOFINAL\FORNITEHOUSEOPENGL\EXTERNAL LIBRARIES\GLM\GLM\EXT\MATRIX_FLOAT3X3_PRECISION.HPP
C:\USERS\ANGEL\DESKTOP\LABCGEIHM\PROYECTOFINAL\FORNITEHOUSEOPENGL\EXTERNAL LIBRARIES\GLM\GLM\MAT3X4.HPP
C:\USERS\ANGEL\DESKTOP\LABCGEIHM\PROYECTOFINAL\FORNITEHOUSEOPENGL\EXTERNAL LIBRARIES\GLM\GLM\EXT\MATRIX_DOUBLE3X4.HPP
C:\USERS\ANGEL\DESKTOP\LABCGEIHM\PROYECTOFINAL\FORNITEHOUSEOPENGL\EXTERNAL LIBRARIES\GLM\GLM\DETAIL\TYPE_MAT3X4.HPP
C:\USERS\ANGEL\DESKTOP\LABCGEIHM\PROYECTOFINAL\FORNITEHOUSEOPENGL\EXTERNAL LIBRARIES\GLM\GLM\DETAIL\TYPE_MAT3X4.INL
C:\USERS\ANGEL\DESKTOP\LABCGEIHM\PROYECTOFINAL\FORNITEHOUSEOPENGL\EXTERNAL LIBRARIES\GLM\GLM\EXT\MATRIX_DOUBLE3X4_PRECISION.HPP
C:\USERS\ANGEL\DESKTOP\LABCGEIHM\PROYECTOFINAL\FORNITEHOUSEOPENGL\EXTERNAL LIBRARIES\GLM\GLM\EXT\MATRIX_FLOAT3X4.HPP
C:\USERS\ANGEL\DESKTOP\LABCGEIHM\PROYECTOFINAL\FORNITEHOUSEOPENGL\EXTERNAL LIBRARIES\GLM\GLM\EXT\MATRIX_FLOAT3X4_PRECISION.HPP
C:\USERS\ANGEL\DESKTOP\LABCGEIHM\PROYECTOFINAL\FORNITEHOUSEOPENGL\EXTERNAL LIBRARIES\GLM\GLM\MAT4X2.HPP
C:\USERS\ANGEL\DESKTOP\LABCGEIHM\PROYECTOFINAL\FORNITEHOUSEOPENGL\EXTERNAL LIBRARIES\GLM\GLM\EXT\MATRIX_DOUBLE4X2.HPP
C:\USERS\ANGEL\DESKTOP\LABCGEIHM\PROYECTOFINAL\FORNITEHOUSEOPENGL\EXTERNAL LIBRARIES\GLM\GLM\DETAIL\TYPE_MAT4X2.HPP
C:\USERS\ANGEL\DESKTOP\LABCGEIHM\PROYECTOFINAL\FORNITEHOUSEOPENGL\EXTERNAL LIBRARIES\GLM\GLM\DETAIL\TYPE_MAT4X2.INL
C:\USERS\ANGEL\DESKTOP\LABCGEIHM\PROYECTOFINAL\FORNITEHOUSEOPENGL\EXTERNAL LIBRARIES\GLM\GLM\EXT\MATRIX_DOUBLE4X2_PRECISION.HPP
C:\USERS\ANGEL\DESKTOP\LABCGEIHM\PROYECTOFINAL\FORNITEHOUSEOPENGL\EXTERNAL LIBRARIES\GLM\GLM\EXT\MATRIX_FLOAT4X2.HPP
C:\USERS\ANGEL\DESKTOP\LABCGEIHM\PROYECTOFINAL\FORNITEHOUSEOPENGL\EXTERNAL LIBRARIES\GLM\GLM\EXT\MATRIX_FLOAT4X2_PRECISION.HPP
C:\USERS\ANGEL\DESKTOP\LABCGEIHM\PROYECTOFINAL\FORNITEHOUSEOPENGL\EXTERNAL LIBRARIES\GLM\GLM\MAT4X3.HPP
C:\USERS\ANGEL\DESKTOP\LABCGEIHM\PROYECTOFINAL\FORNITEHOUSEOPENGL\EXTERNAL LIBRARIES\GLM\GLM\EXT\MATRIX_DOUBLE4X3.HPP
C:\USERS\ANGEL\DESKTOP\LABCGEIHM\PROYECTOFINAL\FORNITEHOUSEOPENGL\EXTERNAL LIBRARIES\GLM\GLM\DETAIL\TYPE_MAT4X3.HPP
C:\USERS\ANGEL\DESKTOP\LABCGEIHM\PROYECTOFINAL\FORNITEHOUSEOPENGL\EXTERNAL LIBRARIES\GLM\GLM\DETAIL\TYPE_MAT4X3.INL
C:\USERS\ANGEL\DESKTOP\LABCGEIHM\PROYECTOFINAL\FORNITEHOUSEOPENGL\EXTERNAL LIBRARIES\GLM\GLM\EXT\MATRIX_DOUBLE4X3_PRECISION.HPP
C:\USERS\ANGEL\DESKTOP\LABCGEIHM\PROYECTOFINAL\FORNITEHOUSEOPENGL\EXTERNAL LIBRARIES\GLM\GLM\EXT\MATRIX_FLOAT4X3.HPP
C:\USERS\ANGEL\DESKTOP\LABCGEIHM\PROYECTOFINAL\FORNITEHOUSEOPENGL\EXTERNAL LIBRARIES\GLM\GLM\EXT\MATRIX_FLOAT4X3_PRECISION.HPP
C:\USERS\ANGEL\DESKTOP\LABCGEIHM\PROYECTOFINAL\FORNITEHOUSEOPENGL\EXTERNAL LIBRARIES\GLM\GLM\MAT4X4.HPP
C:\USERS\ANGEL\DESKTOP\LABCGEIHM\PROYECTOFINAL\FORNITEHOUSEOPENGL\EXTERNAL LIBRARIES\GLM\GLM\EXT\MATRIX_DOUBLE4X4.HPP
C:\USERS\ANGEL\DESKTOP\LABCGEIHM\PROYECTOFINAL\FORNITEHOUSEOPENGL\EXTERNAL LIBRARIES\GLM\GLM\DETAIL\TYPE_MAT4X4.HPP
C:\USERS\ANGEL\DESKTOP\LABCGEIHM\PROYECTOFINAL\FORNITEHOUSEOPENGL\EXTERNAL LIBRARIES\GLM\GLM\DETAIL\TYPE_MAT4X4.INL
C:\USERS\ANGEL\DESKTOP\LABCGEIHM\PROYECTOFINAL\FORNITEHOUSEOPENGL\EXTERNAL LIBRARIES\GLM\GLM\DETAIL\TYPE_MAT4X4_SIMD.INL
C:\USERS\ANGEL\DESKTOP\LABCGEIHM\PROYECTOFINAL\FORNITEHOUSEOPENGL\EXTERNAL LIBRARIES\GLM\GLM\EXT\MATRIX_DOUBLE4X4_PRECISION.HPP
C:\USERS\ANGEL\DESKTOP\LABCGEIHM\PROYECTOFINAL\FORNITEHOUSEOPENGL\EXTERNAL LIBRARIES\GLM\GLM\EXT\MATRIX_FLOAT4X4.HPP
C:\USERS\ANGEL\DESKTOP\LABCGEIHM\PROYECTOFINAL\FORNITEHOUSEOPENGL\EXTERNAL LIBRARIES\GLM\GLM\EXT\MATRIX_FLOAT4X4_PRECISION.HPP
C:\USERS\ANGEL\DESKTOP\LABCGEIHM\PROYECTOFINAL\FORNITEHOUSEOPENGL\EXTERNAL LIBRARIES\GLM\GLM\DETAIL\FUNC_MATRIX.INL
C:\USERS\ANGEL\DESKTOP\LABCGEIHM\PROYECTOFINAL\FORNITEHOUSEOPENGL\EXTERNAL LIBRARIES\GLM\GLM\GEOMETRIC.HPP
C:\USERS\ANGEL\DESKTOP\LABCGEIHM\PROYECTOFINAL\FORNITEHOUSEOPENGL\EXTERNAL LIBRARIES\GLM\GLM\DETAIL\FUNC_GEOMETRIC.INL
C:\USERS\ANGEL\DESKTOP\LABCGEIHM\PROYECTOFINAL\FORNITEHOUSEOPENGL\EXTERNAL LIBRARIES\GLM\GLM\EXPONENTIAL.HPP
C:\USERS\ANGEL\DESKTOP\LABCGEIHM\PROYECTOFINAL\FORNITEHOUSEOPENGL\EXTERNAL LIBRARIES\GLM\GLM\DETAIL\TYPE_VEC1.HPP
C:\USERS\ANGEL\DESKTOP\LABCGEIHM\PROYECTOFINAL\FORNITEHOUSEOPENGL\EXTERNAL LIBRARIES\GLM\GLM\DETAIL\TYPE_VEC1.INL
C:\USERS\ANGEL\DESKTOP\LABCGEIHM\PROYECTOFINAL\FORNITEHOUSEOPENGL\EXTERNAL LIBRARIES\GLM\GLM\DETAIL\FUNC_EXPONENTIAL.INL
C:\USERS\ANGEL\DESKTOP\LABCGEIHM\PROYECTOFINAL\FORNITEHOUSEOPENGL\EXTERNAL LIBRARIES\GLM\GLM\VECTOR_RELATIONAL.HPP
C:\USERS\ANGEL\DESKTOP\LABCGEIHM\PROYECTOFINAL\FORNITEHOUSEOPENGL\EXTERNAL LIBRARIES\GLM\GLM\DETAIL\FUNC_VECTOR_RELATIONAL.INL
C:\USERS\ANGEL\DESKTOP\LABCGEIHM\PROYECTOFINAL\FORNITEHOUSEOPENGL\EXTERNAL LIBRARIES\GLM\GLM\DETAIL\FUNC_VECTOR_RELATIONAL_SIMD.INL
C:\USERS\ANGEL\DESKTOP\LABCGEIHM\PROYECTOFINAL\FORNITEHOUSEOPENGL\EXTERNAL LIBRARIES\GLM\GLM\DETAIL\_VECTORIZE.HPP
C:\USERS\ANGEL\DESKTOP\LABCGEIHM\PROYECTOFINAL\FORNITEHOUSEOPENGL\EXTERNAL LIBRARIES\GLM\GLM\DETAIL\FUNC_EXPONENTIAL_SIMD.INL
C:\USERS\ANGEL\DESKTOP\LABCGEIHM\PROYECTOFINAL\FORNITEHOUSEOPENGL\EXTERNAL LIBRARIES\GLM\GLM\SIMD\EXPONENTIAL.H
C:\USERS\ANGEL\DESKTOP\LABCGEIHM\PROYECTOFINAL\FORNITEHOUSEOPENGL\EXTERNAL LIBRARIES\GLM\GLM\COMMON.HPP
C:\USERS\ANGEL\DESKTOP\LABCGEIHM\PROYECTOFINAL\FORNITEHOUSEOPENGL\EXTERNAL LIBRARIES\GLM\GLM\DETAIL\FUNC_COMMON.INL
C:\USERS\ANGEL\DESKTOP\LABCGEIHM\PROYECTOFINAL\FORNITEHOUSEOPENGL\EXTERNAL LIBRARIES\GLM\GLM\DETAIL\COMPUTE_COMMON.HPP
C:\USERS\ANGEL\DESKTOP\LABCGEIHM\PROYECTOFINAL\FORNITEHOUSEOPENGL\EXTERNAL LIBRARIES\GLM\GLM\DETAIL\FUNC_COMMON_SIMD.INL
C:\USERS\ANGEL\DESKTOP\LABCGEIHM\PROYECTOFINAL\FORNITEHOUSEOPENGL\EXTERNAL LIBRARIES\GLM\GLM\SIMD\COMMON.H
C:\PROGRAM FILES (X86)\MICROSOFT VISUAL STUDIO\2019\ENTERPRISE\VC\TOOLS\MSVC\14.28.29333\INCLUDE\IMMINTRIN.H
C:\PROGRAM FILES (X86)\MICROSOFT VISUAL STUDIO\2019\ENTERPRISE\VC\TOOLS\MSVC\14.28.29333\INCLUDE\WMMINTRIN.H
C:\PROGRAM FILES (X86)\MICROSOFT VISUAL STUDIO\2019\ENTERPRISE\VC\TOOLS\MSVC\14.28.29333\INCLUDE\NMMINTRIN.H
C:\PROGRAM FILES (X86)\MICROSOFT VISUAL STUDIO\2019\ENTERPRISE\VC\TOOLS\MSVC\14.28.29333\INCLUDE\SMMINTRIN.H
C:\PROGRAM FILES (X86)\MICROSOFT VISUAL STUDIO\2019\ENTERPRISE\VC\TOOLS\MSVC\14.28.29333\INCLUDE\TMMINTRIN.H
C:\PROGRAM FILES (X86)\MICROSOFT VISUAL STUDIO\2019\ENTERPRISE\VC\TOOLS\MSVC\14.28.29333\INCLUDE\PMMINTRIN.H
C:\PROGRAM FILES (X86)\MICROSOFT VISUAL STUDIO\2019\ENTERPRISE\VC\TOOLS\MSVC\14.28.29333\INCLUDE\ZMMINTRIN.H
C:\USERS\ANGEL\DESKTOP\LABCGEIHM\PROYECTOFINAL\FORNITEHOUSEOPENGL\EXTERNAL LIBRARIES\GLM\GLM\DETAIL\FUNC_GEOMETRIC_SIMD.INL
C:\USERS\ANGEL\DESKTOP\LABCGEIHM\PROYECTOFINAL\FORNITEHOUSEOPENGL\EXTERNAL LIBRARIES\GLM\GLM\SIMD\GEOMETRIC.H
C:\USERS\ANGEL\DESKTOP\LABCGEIHM\PROYECTOFINAL\FORNITEHOUSEOPENGL\EXTERNAL LIBRARIES\GLM\GLM\DETAIL\FUNC_MATRIX_SIMD.INL
C:\USERS\ANGEL\DESKTOP\LABCGEIHM\PROYECTOFINAL\FORNITEHOUSEOPENGL\EXTERNAL LIBRARIES\GLM\GLM\SIMD\MATRIX.H
C:\USERS\ANGEL\DESKTOP\LABCGEIHM\PROYECTOFINAL\FORNITEHOUSEOPENGL\EXTERNAL LIBRARIES\GLM\GLM\EXT\MATRIX_DOUBLE2X2_PRECISION.HPP
C:\USERS\ANGEL\DESKTOP\LABCGEIHM\PROYECTOFINAL\FORNITEHOUSEOPENGL\EXTERNAL LIBRARIES\GLM\GLM\EXT\MATRIX_FLOAT2X2.HPP
C:\USERS\ANGEL\DESKTOP\LABCGEIHM\PROYECTOFINAL\FORNITEHOUSEOPENGL\EXTERNAL LIBRARIES\GLM\GLM\EXT\MATRIX_FLOAT2X2_PRECISION.HPP
C:\USERS\ANGEL\DESKTOP\LABCGEIHM\PROYECTOFINAL\FORNITEHOUSEOPENGL\EXTERNAL LIBRARIES\GLM\GLM\TRIGONOMETRIC.HPP
C:\USERS\ANGEL\DESKTOP\LABCGEIHM\PROYECTOFINAL\FORNITEHOUSEOPENGL\EXTERNAL LIBRARIES\GLM\GLM\DETAIL\FUNC_TRIGONOMETRIC.INL
C:\USERS\ANGEL\DESKTOP\LABCGEIHM\PROYECTOFINAL\FORNITEHOUSEOPENGL\EXTERNAL LIBRARIES\GLM\GLM\DETAIL\FUNC_TRIGONOMETRIC_SIMD.INL
C:\USERS\ANGEL\DESKTOP\LABCGEIHM\PROYECTOFINAL\FORNITEHOUSEOPENGL\EXTERNAL LIBRARIES\GLM\GLM\PACKING.HPP
C:\USERS\ANGEL\DESKTOP\LABCGEIHM\PROYECTOFINAL\FORNITEHOUSEOPENGL\EXTERNAL LIBRARIES\GLM\GLM\DETAIL\FUNC_PACKING.INL
C:\USERS\ANGEL\DESKTOP\LABCGEIHM\PROYECTOFINAL\FORNITEHOUSEOPENGL\EXTERNAL LIBRARIES\GLM\GLM\DETAIL\TYPE_HALF.HPP
C:\USERS\ANGEL\DESKTOP\LABCGEIHM\PROYECTOFINAL\FORNITEHOUSEOPENGL\EXTERNAL LIBRARIES\GLM\GLM\DETAIL\TYPE_HALF.INL
C:\USERS\ANGEL\DESKTOP\LABCGEIHM\PROYECTOFINAL\FORNITEHOUSEOPENGL\EXTERNAL LIBRARIES\GLM\GLM\DETAIL\FUNC_PACKING_SIMD.INL
C:\USERS\ANGEL\DESKTOP\LABCGEIHM\PROYECTOFINAL\FORNITEHOUSEOPENGL\EXTERNAL LIBRARIES\GLM\GLM\INTEGER.HPP
C:\USERS\ANGEL\DESKTOP\LABCGEIHM\PROYECTOFINAL\FORNITEHOUSEOPENGL\EXTERNAL LIBRARIES\GLM\GLM\DETAIL\FUNC_INTEGER.INL
C:\PROGRAM FILES (X86)\MICROSOFT VISUAL STUDIO\2019\ENTERPRISE\VC\TOOLS\MSVC\14.28.29333\INCLUDE\INTRIN.H
C:\PROGRAM FILES (X86)\MICROSOFT VISUAL STUDIO\2019\ENTERPRISE\VC\TOOLS\MSVC\14.28.29333\INCLUDE\SETJMP.H
C:\PROGRAM FILES (X86)\MICROSOFT VISUAL STUDIO\2019\ENTERPRISE\VC\TOOLS\MSVC\14.28.29333\INCLUDE\AMMINTRIN.H
C:\PROGRAM FILES (X86)\MICROSOFT VISUAL STUDIO\2019\ENTERPRISE\VC\TOOLS\MSVC\14.28.29333\INCLUDE\MM3DNOW.H
C:\USERS\ANGEL\DESKTOP\LABCGEIHM\PROYECTOFINAL\FORNITEHOUSEOPENGL\EXTERNAL LIBRARIES\GLM\GLM\DETAIL\FUNC_INTEGER_SIMD.INL
C:\USERS\ANGEL\DESKTOP\LABCGEIHM\PROYECTOFINAL\FORNITEHOUSEOPENGL\EXTERNAL LIBRARIES\GLM\GLM\SIMD\INTEGER.H
C:\USERS\ANGEL\DESKTOP\LABCGEIHM\PROYECTOFINAL\FORNITEHOUSEOPENGL\EXTERNAL LIBRARIES\GLM\GLM\GTC\MATRIX_TRANSFORM.HPP
C:\USERS\ANGEL\DESKTOP\LABCGEIHM\PROYECTOFINAL\FORNITEHOUSEOPENGL\EXTERNAL LIBRARIES\GLM\GLM\EXT\MATRIX_PROJECTION.HPP
C:\USERS\ANGEL\DESKTOP\LABCGEIHM\PROYECTOFINAL\FORNITEHOUSEOPENGL\EXTERNAL LIBRARIES\GLM\GLM\GTC\CONSTANTS.HPP
C:\USERS\ANGEL\DESKTOP\LABCGEIHM\PROYECTOFINAL\FORNITEHOUSEOPENGL\EXTERNAL LIBRARIES\GLM\GLM\EXT\SCALAR_CONSTANTS.HPP
C:\USERS\ANGEL\DESKTOP\LABCGEIHM\PROYECTOFINAL\FORNITEHOUSEOPENGL\EXTERNAL LIBRARIES\GLM\GLM\EXT\SCALAR_CONSTANTS.INL
C:\USERS\ANGEL\DESKTOP\LABCGEIHM\PROYECTOFINAL\FORNITEHOUSEOPENGL\EXTERNAL LIBRARIES\GLM\GLM\GTC\CONSTANTS.INL
C:\USERS\ANGEL\DESKTOP\LABCGEIHM\PROYECTOFINAL\FORNITEHOUSEOPENGL\EXTERNAL LIBRARIES\GLM\GLM\EXT\MATRIX_PROJECTION.INL
C:\USERS\ANGEL\DESKTOP\LABCGEIHM\PROYECTOFINAL\FORNITEHOUSEOPENGL\EXTERNAL LIBRARIES\GLM\GLM\EXT\MATRIX_CLIP_SPACE.HPP
C:\USERS\ANGEL\DESKTOP\LABCGEIHM\PROYECTOFINAL\FORNITEHOUSEOPENGL\EXTERNAL LIBRARIES\GLM\GLM\EXT\MATRIX_CLIP_SPACE.INL
C:\USERS\ANGEL\DESKTOP\LABCGEIHM\PROYECTOFINAL\FORNITEHOUSEOPENGL\EXTERNAL LIBRARIES\GLM\GLM\EXT\MATRIX_TRANSFORM.HPP
C:\USERS\ANGEL\DESKTOP\LABCGEIHM\PROYECTOFINAL\FORNITEHOUSEOPENGL\EXTERNAL LIBRARIES\GLM\GLM\EXT\MATRIX_TRANSFORM.INL
C:\USERS\ANGEL\DESKTOP\LABCGEIHM\PROYECTOFINAL\FORNITEHOUSEOPENGL\EXTERNAL LIBRARIES\GLM\GLM\GTC\MATRIX_TRANSFORM.INL
C:\USERS\ANGEL\DESKTOP\LABCGEIHM\PROYECTOFINAL\FORNITEHOUSEOPENGL\EXTERNAL LIBRARIES\GLM\GLM\GTC\TYPE_PTR.HPP
C:\USERS\ANGEL\DESKTOP\LABCGEIHM\PROYECTOFINAL\FORNITEHOUSEOPENGL\EXTERNAL LIBRARIES\GLM\GLM\GTC\QUATERNION.HPP
C:\USERS\ANGEL\DESKTOP\LABCGEIHM\PROYECTOFINAL\FORNITEHOUSEOPENGL\EXTERNAL LIBRARIES\GLM\GLM\EXT\VECTOR_RELATIONAL.HPP
C:\USERS\ANGEL\DESKTOP\LABCGEIHM\PROYECTOFINAL\FORNITEHOUSEOPENGL\EXTERNAL LIBRARIES\GLM\GLM\EXT\VECTOR_RELATIONAL.INL
C:\USERS\ANGEL\DESKTOP\LABCGEIHM\PROYECTOFINAL\FORNITEHOUSEOPENGL\EXTERNAL LIBRARIES\GLM\GLM\DETAIL\TYPE_FLOAT.HPP
C:\USERS\ANGEL\DESKTOP\LABCGEIHM\PROYECTOFINAL\FORNITEHOUSEOPENGL\EXTERNAL LIBRARIES\GLM\GLM\EXT\QUATERNION_COMMON.HPP
C:\USERS\ANGEL\DESKTOP\LABCGEIHM\PROYECTOFINAL\FORNITEHOUSEOPENGL\EXTERNAL LIBRARIES\GLM\GLM\EXT\QUATERNION_GEOMETRIC.HPP
C:\USERS\ANGEL\DESKTOP\LABCGEIHM\PROYECTOFINAL\FORNITEHOUSEOPENGL\EXTERNAL LIBRARIES\GLM\GLM\EXT\QUATERNION_GEOMETRIC.INL
C:\USERS\ANGEL\DESKTOP\LABCGEIHM\PROYECTOFINAL\FORNITEHOUSEOPENGL\EXTERNAL LIBRARIES\GLM\GLM\EXT\QUATERNION_COMMON.INL
C:\USERS\ANGEL\DESKTOP\LABCGEIHM\PROYECTOFINAL\FORNITEHOUSEOPENGL\EXTERNAL LIBRARIES\GLM\GLM\EXT\QUATERNION_COMMON_SIMD.INL
C:\USERS\ANGEL\DESKTOP\LABCGEIHM\PROYECTOFINAL\FORNITEHOUSEOPENGL\EXTERNAL LIBRARIES\GLM\GLM\EXT\QUATERNION_FLOAT.HPP
C:\USERS\ANGEL\DESKTOP\LABCGEIHM\PROYECTOFINAL\FORNITEHOUSEOPENGL\EXTERNAL LIBRARIES\GLM\GLM\DETAIL\TYPE_QUAT.HPP
C:\USERS\ANGEL\DESKTOP\LABCGEIHM\PROYECTOFINAL\FORNITEHOUSEOPENGL\EXTERNAL LIBRARIES\GLM\GLM\EXT\QUATERNION_RELATIONAL.HPP
C:\USERS\ANGEL\DESKTOP\LABCGEIHM\PROYECTOFINAL\FORNITEHOUSEOPENGL\EXTERNAL LIBRARIES\GLM\GLM\EXT\QUATERNION_RELATIONAL.INL
C:\USERS\ANGEL\DESKTOP\LABCGEIHM\PROYECTOFINAL\FORNITEHOUSEOPENGL\EXTERNAL LIBRARIES\GLM\GLM\DETAIL\TYPE_QUAT.INL
C:\USERS\ANGEL\DESKTOP\LABCGEIHM\PROYECTOFINAL\FORNITEHOUSEOPENGL\EXTERNAL LIBRARIES\GLM\GLM\DETAIL\TYPE_QUAT_SIMD.INL
C:\USERS\ANGEL\DESKTOP\LABCGEIHM\PROYECTOFINAL\FORNITEHOUSEOPENGL\EXTERNAL LIBRARIES\GLM\GLM\EXT\QUATERNION_FLOAT_PRECISION.HPP
C:\USERS\ANGEL\DESKTOP\LABCGEIHM\PROYECTOFINAL\FORNITEHOUSEOPENGL\EXTERNAL LIBRARIES\GLM\GLM\EXT\QUATERNION_DOUBLE.HPP
C:\USERS\ANGEL\DESKTOP\LABCGEIHM\PROYECTOFINAL\FORNITEHOUSEOPENGL\EXTERNAL LIBRARIES\GLM\GLM\EXT\QUATERNION_DOUBLE_PRECISION.HPP
C:\USERS\ANGEL\DESKTOP\LABCGEIHM\PROYECTOFINAL\FORNITEHOUSEOPENGL\EXTERNAL LIBRARIES\GLM\GLM\EXT\QUATERNION_TRIGONOMETRIC.HPP
C:\USERS\ANGEL\DESKTOP\LABCGEIHM\PROYECTOFINAL\FORNITEHOUSEOPENGL\EXTERNAL LIBRARIES\GLM\GLM\EXT\QUATERNION_TRIGONOMETRIC.INL
C:\USERS\ANGEL\DESKTOP\LABCGEIHM\PROYECTOFINAL\FORNITEHOUSEOPENGL\EXTERNAL LIBRARIES\GLM\GLM\EXT\QUATERNION_TRANSFORM.HPP
C:\USERS\ANGEL\DESKTOP\LABCGEIHM\PROYECTOFINAL\FORNITEHOUSEOPENGL\EXTERNAL LIBRARIES\GLM\GLM\EXT\QUATERNION_TRANSFORM.INL
C:\USERS\ANGEL\DESKTOP\LABCGEIHM\PROYECTOFINAL\FORNITEHOUSEOPENGL\EXTERNAL LIBRARIES\GLM\GLM\GTC\QUATERNION.INL
C:\USERS\ANGEL\DESKTOP\LABCGEIHM\PROYECTOFINAL\FORNITEHOUSEOPENGL\EXTERNAL LIBRARIES\GLM\GLM\GTC\EPSILON.HPP
C:\USERS\ANGEL\DESKTOP\LABCGEIHM\PROYECTOFINAL\FORNITEHOUSEOPENGL\EXTERNAL LIBRARIES\GLM\GLM\GTC\EPSILON.INL
C:\USERS\ANGEL\DESKTOP\LABCGEIHM\PROYECTOFINAL\FORNITEHOUSEOPENGL\EXTERNAL LIBRARIES\GLM\GLM\GTC\QUATERNION_SIMD.INL
C:\USERS\ANGEL\DESKTOP\LABCGEIHM\PROYECTOFINAL\FORNITEHOUSEOPENGL\EXTERNAL LIBRARIES\GLM\GLM\GTC\VEC1.HPP
C:\USERS\ANGEL\DESKTOP\LABCGEIHM\PROYECTOFINAL\FORNITEHOUSEOPENGL\EXTERNAL LIBRARIES\GLM\GLM\EXT\VECTOR_BOOL1.HPP
C:\USERS\ANGEL\DESKTOP\LABCGEIHM\PROYECTOFINAL\FORNITEHOUSEOPENGL\EXTERNAL LIBRARIES\GLM\GLM\EXT\VECTOR_BOOL1_PRECISION.HPP
C:\USERS\ANGEL\DESKTOP\LABCGEIHM\PROYECTOFINAL\FORNITEHOUSEOPENGL\EXTERNAL LIBRARIES\GLM\GLM\EXT\VECTOR_FLOAT1.HPP
C:\USERS\ANGEL\DESKTOP\LABCGEIHM\PROYECTOFINAL\FORNITEHOUSEOPENGL\EXTERNAL LIBRARIES\GLM\GLM\EXT\VECTOR_FLOAT1_PRECISION.HPP
C:\USERS\ANGEL\DESKTOP\LABCGEIHM\PROYECTOFINAL\FORNITEHOUSEOPENGL\EXTERNAL LIBRARIES\GLM\GLM\EXT\VECTOR_DOUBLE1.HPP
C:\USERS\ANGEL\DESKTOP\LABCGEIHM\PROYECTOFINAL\FORNITEHOUSEOPENGL\EXTERNAL LIBRARIES\GLM\GLM\EXT\VECTOR_DOUBLE1_PRECISION.HPP
C:\USERS\ANGEL\DESKTOP\LABCGEIHM\PROYECTOFINAL\FORNITEHOUSEOPENGL\EXTERNAL LIBRARIES\GLM\GLM\EXT\VECTOR_INT1.HPP
C:\USERS\ANGEL\DESKTOP\LABCGEIHM\PROYECTOFINAL\FORNITEHOUSEOPENGL\EXTERNAL LIBRARIES\GLM\GLM\EXT\VECTOR_INT1_PRECISION.HPP
C:\USERS\ANGEL\DESKTOP\LABCGEIHM\PROYECTOFINAL\FORNITEHOUSEOPENGL\EXTERNAL LIBRARIES\GLM\GLM\EXT\VECTOR_UINT1.HPP
C:\USERS\ANGEL\DESKTOP\LABCGEIHM\PROYECTOFINAL\FORNITEHOUSEOPENGL\EXTERNAL LIBRARIES\GLM\GLM\EXT\VECTOR_UINT1_PRECISION.HPP
C:\USERS\ANGEL\DESKTOP\LABCGEIHM\PROYECTOFINAL\FORNITEHOUSEOPENGL\EXTERNAL LIBRARIES\GLM\GLM\GTC\TYPE_PTR.INL
C:\USERS\ANGEL\DESKTOP\LABCGEIHM\PROYECTOFINAL\FORNITEHOUSEOPENGL\FORTNITE\SOIL2\SOIL2.H
C:\USERS\ANGEL\DESKTOP\LABCGEIHM\PROYECTOFINAL\FORNITEHOUSEOPENGL\FORTNITE\SHADER.H
C:\PROGRAM FILES (X86)\MICROSOFT VISUAL STUDIO\2019\ENTERPRISE\VC\TOOLS\MSVC\14.28.29333\INCLUDE\STRING
C:\PROGRAM FILES (X86)\MICROSOFT VISUAL STUDIO\2019\ENTERPRISE\VC\TOOLS\MSVC\14.28.29333\INCLUDE\CCTYPE
C:\PROGRAM FILES (X86)\MICROSOFT VISUAL STUDIO\2019\ENTERPRISE\VC\TOOLS\MSVC\14.28.29333\INCLUDE\FSTREAM
C:\PROGRAM FILES (X86)\MICROSOFT VISUAL STUDIO\2019\ENTERPRISE\VC\TOOLS\MSVC\14.28.29333\INCLUDE\SSTREAM
C:\USERS\ANGEL\DESKTOP\LABCGEIHM\PROYECTOFINAL\FORNITEHOUSEOPENGL\FORTNITE\CAMERA.H
C:\PROGRAM FILES (X86)\MICROSOFT VISUAL STUDIO\2019\ENTERPRISE\VC\TOOLS\MSVC\14.28.29333\INCLUDE\VECTOR
C:\USERS\ANGEL\DESKTOP\LABCGEIHM\PROYECTOFINAL\FORNITEHOUSEOPENGL\FORTNITE\MODEL.H
C:\PROGRAM FILES (X86)\MICROSOFT VISUAL STUDIO\2019\ENTERPRISE\VC\TOOLS\MSVC\14.28.29333\INCLUDE\MAP
C:\PROGRAM FILES (X86)\MICROSOFT VISUAL STUDIO\2019\ENTERPRISE\VC\TOOLS\MSVC\14.28.29333\INCLUDE\TUPLE
C:\PROGRAM FILES (X86)\MICROSOFT VISUAL STUDIO\2019\ENTERPRISE\VC\TOOLS\MSVC\14.28.29333\INCLUDE\XTREE
C:\USERS\ANGEL\DESKTOP\LABCGEIHM\PROYECTOFINAL\FORNITEHOUSEOPENGL\EXTERNAL LIBRARIES\ASSIMP\INCLUDE\ASSIMP\IMPORTER.HPP
C:\USERS\ANGEL\DESKTOP\LABCGEIHM\PROYECTOFINAL\FORNITEHOUSEOPENGL\EXTERNAL LIBRARIES\ASSIMP\INCLUDE\ASSIMP\TYPES.H
C:\USERS\ANGEL\DESKTOP\LABCGEIHM\PROYECTOFINAL\FORNITEHOUSEOPENGL\EXTERNAL LIBRARIES\ASSIMP\INCLUDE\ASSIMP\DEFS.H
C:\USERS\ANGEL\DESKTOP\LABCGEIHM\PROYECTOFINAL\FORNITEHOUSEOPENGL\EXTERNAL LIBRARIES\ASSIMP\INCLUDE\ASSIMP\CONFIG.H
C:\USERS\ANGEL\DESKTOP\LABCGEIHM\PROYECTOFINAL\FORNITEHOUSEOPENGL\EXTERNAL LIBRARIES\ASSIMP\INCLUDE\ASSIMP\VECTOR3.H
C:\USERS\ANGEL\DESKTOP\LABCGEIHM\PROYECTOFINAL\FORNITEHOUSEOPENGL\EXTERNAL LIBRARIES\ASSIMP\INCLUDE\ASSIMP\VECTOR2.H
C:\USERS\ANGEL\DESKTOP\LABCGEIHM\PROYECTOFINAL\FORNITEHOUSEOPENGL\EXTERNAL LIBRARIES\ASSIMP\INCLUDE\ASSIMP\COMPILER\PUSHPACK1.H
C:\USERS\ANGEL\DESKTOP\LABCGEIHM\PROYECTOFINAL\FORNITEHOUSEOPENGL\EXTERNAL LIBRARIES\ASSIMP\INCLUDE\ASSIMP\COMPILER\POPPACK1.H
C:\USERS\ANGEL\DESKTOP\LABCGEIHM\PROYECTOFINAL\FORNITEHOUSEOPENGL\EXTERNAL LIBRARIES\ASSIMP\INCLUDE\ASSIMP\COLOR4.H
C:\USERS\ANGEL\DESKTOP\LABCGEIHM\PROYECTOFINAL\FORNITEHOUSEOPENGL\EXTERNAL LIBRARIES\ASSIMP\INCLUDE\ASSIMP\MATRIX3X3.H
C:\USERS\ANGEL\DESKTOP\LABCGEIHM\PROYECTOFINAL\FORNITEHOUSEOPENGL\EXTERNAL LIBRARIES\ASSIMP\INCLUDE\ASSIMP\MATRIX4X4.H
C:\USERS\ANGEL\DESKTOP\LABCGEIHM\PROYECTOFINAL\FORNITEHOUSEOPENGL\EXTERNAL LIBRARIES\ASSIMP\INCLUDE\ASSIMP\QUATERNION.H
C:\USERS\ANGEL\DESKTOP\LABCGEIHM\PROYECTOFINAL\FORNITEHOUSEOPENGL\EXTERNAL LIBRARIES\ASSIMP\INCLUDE\ASSIMP\VECTOR2.INL
C:\USERS\ANGEL\DESKTOP\LABCGEIHM\PROYECTOFINAL\FORNITEHOUSEOPENGL\EXTERNAL LIBRARIES\ASSIMP\INCLUDE\ASSIMP\VECTOR3.INL
C:\USERS\ANGEL\DESKTOP\LABCGEIHM\PROYECTOFINAL\FORNITEHOUSEOPENGL\EXTERNAL LIBRARIES\ASSIMP\INCLUDE\ASSIMP\COLOR4.INL
C:\USERS\ANGEL\DESKTOP\LABCGEIHM\PROYECTOFINAL\FORNITEHOUSEOPENGL\EXTERNAL LIBRARIES\ASSIMP\INCLUDE\ASSIMP\QUATERNION.INL
C:\USERS\ANGEL\DESKTOP\LABCGEIHM\PROYECTOFINAL\FORNITEHOUSEOPENGL\EXTERNAL LIBRARIES\ASSIMP\INCLUDE\ASSIMP\MATRIX3X3.INL
C:\PROGRAM FILES (X86)\MICROSOFT VISUAL STUDIO\2019\ENTERPRISE\VC\TOOLS\MSVC\14.28.29333\INCLUDE\ALGORITHM
C:\USERS\ANGEL\DESKTOP\LABCGEIHM\PROYECTOFINAL\FORNITEHOUSEOPENGL\EXTERNAL LIBRARIES\ASSIMP\INCLUDE\ASSIMP\MATRIX4X4.INL
C:\USERS\ANGEL\DESKTOP\LABCGEIHM\PROYECTOFINAL\FORNITEHOUSEOPENGL\EXTERNAL LIBRARIES\ASSIMP\INCLUDE\ASSIMP\SCENE.H
C:\USERS\ANGEL\DESKTOP\LABCGEIHM\PROYECTOFINAL\FORNITEHOUSEOPENGL\EXTERNAL LIBRARIES\ASSIMP\INCLUDE\ASSIMP\TEXTURE.H
C:\USERS\ANGEL\DESKTOP\LABCGEIHM\PROYECTOFINAL\FORNITEHOUSEOPENGL\EXTERNAL LIBRARIES\ASSIMP\INCLUDE\ASSIMP\MESH.H
C:\USERS\ANGEL\DESKTOP\LABCGEIHM\PROYECTOFINAL\FORNITEHOUSEOPENGL\EXTERNAL LIBRARIES\ASSIMP\INCLUDE\ASSIMP\LIGHT.H
C:\USERS\ANGEL\DESKTOP\LABCGEIHM\PROYECTOFINAL\FORNITEHOUSEOPENGL\EXTERNAL LIBRARIES\ASSIMP\INCLUDE\ASSIMP\CAMERA.H
C:\USERS\ANGEL\DESKTOP\LABCGEIHM\PROYECTOFINAL\FORNITEHOUSEOPENGL\EXTERNAL LIBRARIES\ASSIMP\INCLUDE\ASSIMP\MATERIAL.H
C:\USERS\ANGEL\DESKTOP\LABCGEIHM\PROYECTOFINAL\FORNITEHOUSEOPENGL\EXTERNAL LIBRARIES\ASSIMP\INCLUDE\ASSIMP\MATERIAL.INL
C:\USERS\ANGEL\DESKTOP\LABCGEIHM\PROYECTOFINAL\FORNITEHOUSEOPENGL\EXTERNAL LIBRARIES\ASSIMP\INCLUDE\ASSIMP\ANIM.H
C:\USERS\ANGEL\DESKTOP\LABCGEIHM\PROYECTOFINAL\FORNITEHOUSEOPENGL\EXTERNAL LIBRARIES\ASSIMP\INCLUDE\ASSIMP\METADATA.H
C:\USERS\ANGEL\DESKTOP\LABCGEIHM\PROYECTOFINAL\FORNITEHOUSEOPENGL\EXTERNAL LIBRARIES\ASSIMP\INCLUDE\ASSIMP\POSTPROCESS.H
C:\USERS\ANGEL\DESKTOP\LABCGEIHM\PROYECTOFINAL\FORNITEHOUSEOPENGL\FORTNITE\MESH.H
C:\USERS\ANGEL\DESKTOP\LABCGEIHM\PROYECTOFINAL\FORNITEHOUSEOPENGL\FORTNITE\TEXTURE.H
