^C:\USERS\ANGEL\DESKTOP\LABCGEIHM\PROYECTOFINAL\FORTNITEHOUSE-OPENGL\OPENGL\FORTNITE\DEBUG\MAIN.OBJ
C:\USERS\ANGEL\DESKTOP\LABCGEIHM\PROYECTOFINAL\FORTNITEHOUSE-OPENGL\OPENGL\DEBUG\FORTNITE.EXE
C:\USERS\ANGEL\DESKTOP\LABCGEIHM\PROYECTOFINAL\FORTNITEHOUSE-OPENGL\OPENGL\DEBUG\FORTNITE.ILK
C:\USERS\ANGEL\DESKTOP\LABCGEIHM\PROYECTOFINAL\FORTNITEHOUSE-OPENGL\OPENGL\DEBUG\FORTNITE.PDB
^C:\USERS\ANGEL\DESKTOP\LABCGEIHM\PROYECTOFINAL\FORNITEHOUSEOPENGL\FORTNITE\DEBUG\MAIN.OBJ
C:\USERS\ANGEL\DESKTOP\LABCGEIHM\PROYECTOFINAL\FORNITEHOUSEOPENGL\DEBUG\FORTNITE.EXE
C:\USERS\ANGEL\DESKTOP\LABCGEIHM\PROYECTOFINAL\FORNITEHOUSEOPENGL\DEBUG\FORTNITE.ILK
C:\USERS\ANGEL\DESKTOP\LABCGEIHM\PROYECTOFINAL\FORNITEHOUSEOPENGL\DEBUG\FORTNITE.PDB
